<?xml version="1.0" encoding="UTF-8" ?>
<testsuite errors="0" failures="0" hostname="DVTL2YM7JR2" name="TestSuites.Lightstone_LoginTestSuite" skipped="0" tests="1" time="0.244" timestamp="2019-05-30T08:57:07">
  <properties>
    <property name="netbeans.autoupdate.country" value="US" />
    <property name="file.reference.client-combined-3.7.1.jar" value="Dependencies\Selenium\client-combined-3.7.1.jar" />
    <property name="javac.test.classpath" value="Dependencies/extentreports-3.1.3.jar:Dependencies/guava-23.0.jar:Dependencies\Selenium\appium-java-client-5.0.4.jar:Dependencies\Selenium\client-combined-3.7.1.jar:Dependencies\Selenium\selenium-server-standalone-3.7.1.jar:Dependencies/activation.jar:Dependencies\joda-time-2.2.jar:Dependencies/mail.jar:C:/Users/ARohrs/Andy-Workspace/lightstone_automation_maven/Dependencies/../Dependencies/dom4j-1.6.1.jar;C:/Users/ARohrs/Andy-Workspace/lightstone_automation_maven/Dependencies/../Dependencies/log4j-1.2.13.jar;C:/Users/ARohrs/Andy-Workspace/lightstone_automation_maven/Dependencies/../Dependencies/stax-api-1.0.1.jar;C:/Users/ARohrs/Andy-Workspace/lightstone_automation_maven/Dependencies/../Dependencies/xmlbeans-2.3.0.jar;C:/Users/ARohrs/Andy-Workspace/lightstone_automation_maven/Dependencies/hamcrest-core-1.3.jar;C:/Users/ARohrs/Andy-Workspace/lightstone_automation_maven/Dependencies/junit-4.12.jar:Dependencies\derbyclient.jar:Dependencies/freemarker-2.3.23.jar:Dependencies/sqlite-jdbc-3.8.11.1.jar:Dependencies/winium-elements-desktop-0.1.0-1.jar:Dependencies/jasypt-1.9.2.jar:Dependencies\soapui-5.0.0.jar:Dependencies\opencsv-2.2-sources.jar:Dependencies\opencsv-2.3.jar:Dependencies\poi-3.11-20141221.jar:Dependencies\poi-examples-3.11-20141221.jar:Dependencies\poi-excelant-3.11-20141221.jar:Dependencies\poi-ooxml-3.11-20141221.jar:Dependencies\poi-ooxml-schemas-3.11-20141221.jar:Dependencies\poi-scratchpad-3.11-20141221.jar:Dependencies\wsdl4j-1.6.2-fixed.jar:Dependencies\rsyntaxtextarea-2.5.0.jar:Dependencies\proxy-vole-20131209.jar:Dependencies\commons-beanutils-1.9.2.jar:Dependencies\jaxen-1.1.1.jar:Dependencies/commons-lang3-3.4.jar:Dependencies\jms-1.1.jar:Dependencies\derby.jar:Dependencies/ews-java-api-2.0.jar:Dependencies\derbyclient.jar:Dependencies\sikulixapi.jar:Dependencies/speedtest-1.23.jar:Dependencies/log4j-api-2.7.jar:Dependencies/log4j-core-2.7.jar:Dependencies/http-endec-1.02.jar:Dependencies\serializer.jar:Dependencies\xalan.jar:Dependencies\AutoItX4Java.jar:Dependencies\jacob.jar:Dependencies/imageClient-10.8.jar:Dependencies/ws-commons-util-1.0.2.jar:Dependencies/xmlrpc-client-3.1.2.jar:Dependencies/xmlrpc-common-3.1.2.jar:Dependencies/CucumberJava/cucumber-junit-1.2.5.jar:Dependencies/CucumberJava/cucumber-jvm-deps-1.0.5.jar:Dependencies/CucumberJava/cucumber-reporting-3.8.0.jar:Dependencies/CucumberJava/cucumber-java-1.2.5.jar:Dependencies/CucumberJava/cucumber-core-1.2.5.jar:Dependencies/CucumberJava/gherkin-2.12.2.jar:Dependencies/CucumberJava/gherkin-jvm-deps-1.0.3.jar:Dependencies/CucumberJava/cucumber-html-0.2.6.jar:Dependencies\cucumber-java-1.2.5-javadoc.jar:Dependencies/bsh-2.0b4.jar:Dependencies/bson-3.3.0.jar:Dependencies/commons-codec-1.9.jar:Dependencies\commons-logging-1.2.jar:Dependencies/gson-2.8.0.jar:Dependencies/httpclient-4.5.2.jar:Dependencies/httpcore-4.4.4.jar:Dependencies/httpmime-4.5.2.jar:Dependencies/jcommander-1.48.jar:Dependencies/jsoup-1.9.2.jar:Dependencies/browsermob-dist-2.1.4.jar:Dependencies/jackson-core-2.9.0.jar:Dependencies/json-20140107.jar:Dependencies\Selenium\appium-client.jar:Dependencies/cucumber-extentsreport-3.0.2.jar:Dependencies/mongodb-driver-3.3.0.jar:Dependencies/mongodb-driver-core-3.3.0.jar:Dependencies\zt-zip-1.12.jar:Dependencies\mssql-jdbc-6.2.2.jre8.jar:Dependencies\commons-logging-1.2.jar:Dependencies\fontbox-2.0.13.jar:Dependencies\pdfbox-2.0.13.jar:build/classes" />
    <property name="manifest.custom.codebase" value="" />
    <property name="libs.junit.javadoc" value="C:/Users/ARohrs/Andy-Workspace/lightstone_automation_maven/Dependencies/junit/junit-3.8.2-api.zip" />
    <property name="file.reference.commons-beanutils-1.9.2.jar" value="Dependencies\commons-beanutils-1.9.2.jar" />
    <property name="javac.includes" value="TestSuites/Lightstone_LoginTestSuite.java" />
    <property name="ant.core.lib" value="C:\Program Files\NetBeans 8.0.2\extide\ant\lib\ant.jar" />
    <property name="javadoc.windowtitle" value="" />
    <property name="user.dir" value="C:\Users\ARohrs\Andy-Workspace\lightstone_automation_maven" />
    <property name="java.vm.version" value="25.201-b09" />
    <property name="libs.MyLibrary.src" value="" />
    <property name="libs.MySQLDriver.classpath" value="C:\Program Files\NetBeans 8.0.2\ide\modules\ext\mysql-connector-java-5.1.23-bin.jar" />
    <property name="libs.eclipselinkmodelgen.src" value="" />
    <property name="javadoc.notree" value="false" />
    <property name="netbeans.autoupdate.version" value="1.23" />
    <property name="javac.profile.cmd.line.arg" value="" />
    <property name="jdk.home" value="C:\Program Files\Java\jdk1.8.0_201" />
    <property name="libs.javac-api.src" value="" />
    <property name="javadoc.noindex" value="false" />
    <property name="libs.jpa2-persistence.classpath" value="C:\Program Files\NetBeans 8.0.2\java\modules\ext\hibernate4\hibernate-jpa-2.1-api-1.0.0.Final.jar" />
    <property name="sun.os.patch.level" value="" />
    <property name="java.vm.specification.name" value="Java Virtual Machine Specification" />
    <property name="nb.show.statistics.ui" value="usageStatisticsEnabled" />
    <property name="netbeans.autoupdate.variant" value="" />
    <property name="have.tests" value="true" />
    <property name="src.Source.dir" value="Source" />
    <property name="org.xml.sax.driver" value="com.sun.org.apache.xerces.internal.jaxp.SAXParserImpl$JAXPSAXParser" />
    <property name="file.reference.opencsv-2.3.jar" value="Dependencies\opencsv-2.3.jar" />
    <property name="libs.javac-api.javadoc" value="" />
    <property name="file.reference.appium-client.jar" value="Dependencies\Selenium\appium-client.jar" />
    <property name="os.name" value="Windows 10" />
    <property name="test.class" value="TestSuites.Lightstone_LoginTestSuite" />
    <property name="libs.beans-binding.classpath" value="C:\Program Files\NetBeans 8.0.2\java\modules\ext\beansbinding-1.2.1.jar" />
    <property name="ap.proc.none.internal" value="" />
    <property name="file.reference.joda-time-2.2.jar" value="Dependencies\joda-time-2.2.jar" />
    <property name="libs.JWSAntTasks.maven-pom" value="" />
    <property name="jnlp.signing.keystore" value="" />
    <property name="libs.testng.src" value="" />
    <property name="java.vendor.url.bug" value="http://bugreport.sun.com/bugreport/" />
    <property name="libs.jaxb.maven-pom" value="" />
    <property name="os.arch" value="amd64" />
    <property name="libs.eclipselink.src" value="" />
    <property name="user.name" value="ARohrs" />
    <property name="copylibs.rebase" value="true" />
    <property name="file.reference.ws-commons-util-1.0.2.jar" value="Dependencies/ws-commons-util-1.0.2.jar" />
    <property name="libs.swing-layout.maven-pom" value="" />
    <property name="sun.java.command" value="org.apache.tools.ant.taskdefs.optional.junit.JUnitTestRunner TestSuites.Lightstone_LoginTestSuite methods=loginTestSuite skipNonTests=false filtertrace=true haltOnError=false haltOnFailure=false showoutput=true outputtoformatters=true logfailedtests=true threadid=0 logtestlistenerevents=true formatter=org.apache.tools.ant.taskdefs.optional.junit.BriefJUnitResultFormatter formatter=org.apache.tools.ant.taskdefs.optional.junit.XMLJUnitResultFormatter,C:\Users\ARohrs\Andy-Workspace\lightstone_automation_maven\build\test\results\TEST-TestSuites.Lightstone_LoginTestSuite.xml crashfile=C:\Users\ARohrs\Andy-Workspace\lightstone_automation_maven\build\junitvmwatcher1389410865075527709.properties propsfile=C:\Users\ARohrs\Andy-Workspace\lightstone_automation_maven\build\junit2027269341865054150.properties" />
    <property name="build.classes.dir" value="build/classes" />
    <property name="netbeans.accept_license_class" value="org.netbeans.license.AcceptLicense" />
    <property name="jnlp.descriptor" value="application" />
    <property name="build.sysclasspath" value="ignore" />
    <property name="manifest.encoding" value="UTF-8" />
    <property name="ap.supported.internal" value="true" />
    <property name="java.failonerror" value="true" />
    <property name="libs.jaxws21.javadoc" value="C:\Program Files\NetBeans 8.0.2\java\docs\jaxws-api-doc.zip" />
    <property name="includes" value="**" />
    <property name="user.country" value="US" />
    <property name="javadoc.encoding" value="UTF-8" />
    <property name="javac.classpath" value="Dependencies/extentreports-3.1.3.jar:Dependencies/guava-23.0.jar:Dependencies\Selenium\appium-java-client-5.0.4.jar:Dependencies\Selenium\client-combined-3.7.1.jar:Dependencies\Selenium\selenium-server-standalone-3.7.1.jar:Dependencies/activation.jar:Dependencies\joda-time-2.2.jar:Dependencies/mail.jar:C:/Users/ARohrs/Andy-Workspace/lightstone_automation_maven/Dependencies/../Dependencies/dom4j-1.6.1.jar;C:/Users/ARohrs/Andy-Workspace/lightstone_automation_maven/Dependencies/../Dependencies/log4j-1.2.13.jar;C:/Users/ARohrs/Andy-Workspace/lightstone_automation_maven/Dependencies/../Dependencies/stax-api-1.0.1.jar;C:/Users/ARohrs/Andy-Workspace/lightstone_automation_maven/Dependencies/../Dependencies/xmlbeans-2.3.0.jar;C:/Users/ARohrs/Andy-Workspace/lightstone_automation_maven/Dependencies/hamcrest-core-1.3.jar;C:/Users/ARohrs/Andy-Workspace/lightstone_automation_maven/Dependencies/junit-4.12.jar:Dependencies\derbyclient.jar:Dependencies/freemarker-2.3.23.jar:Dependencies/sqlite-jdbc-3.8.11.1.jar:Dependencies/winium-elements-desktop-0.1.0-1.jar:Dependencies/jasypt-1.9.2.jar:Dependencies\soapui-5.0.0.jar:Dependencies\opencsv-2.2-sources.jar:Dependencies\opencsv-2.3.jar:Dependencies\poi-3.11-20141221.jar:Dependencies\poi-examples-3.11-20141221.jar:Dependencies\poi-excelant-3.11-20141221.jar:Dependencies\poi-ooxml-3.11-20141221.jar:Dependencies\poi-ooxml-schemas-3.11-20141221.jar:Dependencies\poi-scratchpad-3.11-20141221.jar:Dependencies\wsdl4j-1.6.2-fixed.jar:Dependencies\rsyntaxtextarea-2.5.0.jar:Dependencies\proxy-vole-20131209.jar:Dependencies\commons-beanutils-1.9.2.jar:Dependencies\jaxen-1.1.1.jar:Dependencies/commons-lang3-3.4.jar:Dependencies\jms-1.1.jar:Dependencies\derby.jar:Dependencies/ews-java-api-2.0.jar:Dependencies\derbyclient.jar:Dependencies\sikulixapi.jar:Dependencies/speedtest-1.23.jar:Dependencies/log4j-api-2.7.jar:Dependencies/log4j-core-2.7.jar:Dependencies/http-endec-1.02.jar:Dependencies\serializer.jar:Dependencies\xalan.jar:Dependencies\AutoItX4Java.jar:Dependencies\jacob.jar:Dependencies/imageClient-10.8.jar:Dependencies/ws-commons-util-1.0.2.jar:Dependencies/xmlrpc-client-3.1.2.jar:Dependencies/xmlrpc-common-3.1.2.jar:Dependencies/CucumberJava/cucumber-junit-1.2.5.jar:Dependencies/CucumberJava/cucumber-jvm-deps-1.0.5.jar:Dependencies/CucumberJava/cucumber-reporting-3.8.0.jar:Dependencies/CucumberJava/cucumber-java-1.2.5.jar:Dependencies/CucumberJava/cucumber-core-1.2.5.jar:Dependencies/CucumberJava/gherkin-2.12.2.jar:Dependencies/CucumberJava/gherkin-jvm-deps-1.0.3.jar:Dependencies/CucumberJava/cucumber-html-0.2.6.jar:Dependencies\cucumber-java-1.2.5-javadoc.jar:Dependencies/bsh-2.0b4.jar:Dependencies/bson-3.3.0.jar:Dependencies/commons-codec-1.9.jar:Dependencies\commons-logging-1.2.jar:Dependencies/gson-2.8.0.jar:Dependencies/httpclient-4.5.2.jar:Dependencies/httpcore-4.4.4.jar:Dependencies/httpmime-4.5.2.jar:Dependencies/jcommander-1.48.jar:Dependencies/jsoup-1.9.2.jar:Dependencies/browsermob-dist-2.1.4.jar:Dependencies/jackson-core-2.9.0.jar:Dependencies/json-20140107.jar:Dependencies\Selenium\appium-client.jar:Dependencies/cucumber-extentsreport-3.0.2.jar:Dependencies/mongodb-driver-3.3.0.jar:Dependencies/mongodb-driver-core-3.3.0.jar:Dependencies\zt-zip-1.12.jar:Dependencies\mssql-jdbc-6.2.2.jre8.jar:Dependencies\commons-logging-1.2.jar:Dependencies\fontbox-2.0.13.jar:Dependencies\pdfbox-2.0.13.jar" />
    <property name="file.reference.jasypt-1.9.2.jar" value="Dependencies/jasypt-1.9.2.jar" />
    <property name="libs.spring-framework400.classpath" value="C:\Program Files\NetBeans 8.0.2\ide\modules\org-apache-commons-logging.jar;C:\Program Files\NetBeans 8.0.2\java\modules\ext\cglib-2.2.jar;C:\Program Files\NetBeans 8.0.2\java\modules\ext\spring-4\spring-aop-4.0.1.RELEASE.jar;C:\Program Files\NetBeans 8.0.2\java\modules\ext\spring-4\spring-aspects-4.0.1.RELEASE.jar;C:\Program Files\NetBeans 8.0.2\java\modules\ext\spring-4\spring-beans-4.0.1.RELEASE.jar;C:\Program Files\NetBeans 8.0.2\java\modules\ext\spring-4\spring-build-src-4.0.1.RELEASE.jar;C:\Program Files\NetBeans 8.0.2\java\modules\ext\spring-4\spring-context-4.0.1.RELEASE.jar;C:\Program Files\NetBeans 8.0.2\java\modules\ext\spring-4\spring-context-support-4.0.1.RELEASE.jar;C:\Program Files\NetBeans 8.0.2\java\modules\ext\spring-4\spring-core-4.0.1.RELEASE.jar;C:\Program Files\NetBeans 8.0.2\java\modules\ext\spring-4\spring-expression-4.0.1.RELEASE.jar;C:\Program Files\NetBeans 8.0.2\java\modules\ext\spring-4\spring-framework-bom-4.0.1.RELEASE.jar;C:\Program Files\NetBeans 8.0.2\java\modules\ext\spring-4\spring-instrument-4.0.1.RELEASE.jar;C:\Program Files\NetBeans 8.0.2\java\modules\ext\spring-4\spring-instrument-tomcat-4.0.1.RELEASE.jar;C:\Program Files\NetBeans 8.0.2\java\modules\ext\spring-4\spring-jdbc-4.0.1.RELEASE.jar;C:\Program Files\NetBeans 8.0.2\java\modules\ext\spring-4\spring-jms-4.0.1.RELEASE.jar;C:\Program Files\NetBeans 8.0.2\java\modules\ext\spring-4\spring-messaging-4.0.1.RELEASE.jar;C:\Program Files\NetBeans 8.0.2\java\modules\ext\spring-4\spring-orm-4.0.1.RELEASE.jar;C:\Program Files\NetBeans 8.0.2\java\modules\ext\spring-4\spring-oxm-4.0.1.RELEASE.jar;C:\Program Files\NetBeans 8.0.2\java\modules\ext\spring-4\spring-test-4.0.1.RELEASE.jar;C:\Program Files\NetBeans 8.0.2\java\modules\ext\spring-4\spring-tx-4.0.1.RELEASE.jar;C:\Program Files\NetBeans 8.0.2\java\modules\ext\spring-4\spring-web-4.0.1.RELEASE.jar;C:\Program Files\NetBeans 8.0.2\java\modules\ext\spring-4\spring-webmvc-4.0.1.RELEASE.jar;C:\Program Files\NetBeans 8.0.2\java\modules\ext\spring-4\spring-webmvc-portlet-4.0.1.RELEASE.jar;C:\Program Files\NetBeans 8.0.2\java\modules\ext\spring-4\spring-websocket-4.0.1.RELEASE.jar" />
    <property name="debug-transport" value="dt_shmem" />
    <property name="netbeans.home" value="C:\Program Files\NetBeans 8.0.2\platform" />
    <property name="build.compiler.emacs" value="true" />
    <property name="java.endorsed.dirs" value="C:\Program Files\Java\jdk1.8.0_201\jre\lib\endorsed" />
    <property name="test.method" value="loginTestSuite" />
    <property name="netbeans.dynamic.classpath" value="C:\Program Files\NetBeans 8.0.2\platform\core\core.jar;C:\Program Files\NetBeans 8.0.2\platform\core\org-openide-filesystems.jar;C:\Program Files\NetBeans 8.0.2\platform\core\locale\core_ja.jar;C:\Program Files\NetBeans 8.0.2\platform\core\locale\core_pt_BR.jar;C:\Program Files\NetBeans 8.0.2\platform\core\locale\core_ru.jar;C:\Program Files\NetBeans 8.0.2\platform\core\locale\core_zh_CN.jar;C:\Program Files\NetBeans 8.0.2\platform\core\locale\org-openide-filesystems_ja.jar;C:\Program Files\NetBeans 8.0.2\platform\core\locale\org-openide-filesystems_pt_BR.jar;C:\Program Files\NetBeans 8.0.2\platform\core\locale\org-openide-filesystems_ru.jar;C:\Program Files\NetBeans 8.0.2\platform\core\locale\org-openide-filesystems_zh_CN.jar;C:\Program Files\NetBeans 8.0.2\nb\core\org-netbeans-upgrader.jar;C:\Program Files\NetBeans 8.0.2\nb\core\locale\core_nb.jar;C:\Program Files\NetBeans 8.0.2\nb\core\locale\core_nb_ja.jar;C:\Program Files\NetBeans 8.0.2\nb\core\locale\core_nb_pt_BR.jar;C:\Program Files\NetBeans 8.0.2\nb\core\locale\core_nb_ru.jar;C:\Program Files\NetBeans 8.0.2\nb\core\locale\core_nb_zh_CN.jar;C:\Program Files\NetBeans 8.0.2\nb\core\locale\org-netbeans-upgrader_ja.jar;C:\Program Files\NetBeans 8.0.2\nb\core\locale\org-netbeans-upgrader_pt_BR.jar;C:\Program Files\NetBeans 8.0.2\nb\core\locale\org-netbeans-upgrader_ru.jar;C:\Program Files\NetBeans 8.0.2\nb\core\locale\org-netbeans-upgrader_zh_CN.jar" />
    <property name="file.reference.xmlrpc-client-3.1.2.jar" value="Dependencies/xmlrpc-client-3.1.2.jar" />
    <property name="jnlp.enabled" value="false" />
    <property name="file.reference.opencsv-2.2-sources.jar" value="Dependencies\opencsv-2.2-sources.jar" />
    <property name="java.vm.specification.version" value="1.8" />
    <property name="libs.hibernate4-support.src" value="" />
    <property name="netbeans.productversion" value="NetBeans IDE 8.0.2 (Build 201411181905)" />
    <property name="libs.jaxws21.src" value="" />
    <property name="file.reference.pdfbox-2.0.13.jar" value="Dependencies\pdfbox-2.0.13.jar" />
    <property name="application.title" value="lightstone-utahV4" />
    <property name="file.reference.cucumber-extentsreport-3.0.2.jar" value="Dependencies/cucumber-extentsreport-3.0.2.jar" />
    <property name="do.archive" value="true" />
    <property name="netbeans.autoupdate.language" value="en" />
    <property name="file.reference.cucumber-core-1.2.5.jar" value="Dependencies/CucumberJava/cucumber-core-1.2.5.jar" />
    <property name="java.vendor" value="Oracle Corporation" />
    <property name="ant.file.type.UTAH_Release" value="file" />
    <property name="jar.index.metainf" value="false" />
    <property name="javac.debug" value="true" />
    <property name="javadoc.splitindex" value="true" />
    <property name="file.separator" value="\" />
    <property name="javac.includesfile.binary" value="C:\Users\ARohrs\Andy-Workspace\lightstone_automation_maven\null810882157" />
    <property name="mkdist.disabled" value="false" />
    <property name="javac.test.processorpath" value="Dependencies/extentreports-3.1.3.jar:Dependencies/guava-23.0.jar:Dependencies\Selenium\appium-java-client-5.0.4.jar:Dependencies\Selenium\client-combined-3.7.1.jar:Dependencies\Selenium\selenium-server-standalone-3.7.1.jar:Dependencies/activation.jar:Dependencies\joda-time-2.2.jar:Dependencies/mail.jar:C:/Users/ARohrs/Andy-Workspace/lightstone_automation_maven/Dependencies/../Dependencies/dom4j-1.6.1.jar;C:/Users/ARohrs/Andy-Workspace/lightstone_automation_maven/Dependencies/../Dependencies/log4j-1.2.13.jar;C:/Users/ARohrs/Andy-Workspace/lightstone_automation_maven/Dependencies/../Dependencies/stax-api-1.0.1.jar;C:/Users/ARohrs/Andy-Workspace/lightstone_automation_maven/Dependencies/../Dependencies/xmlbeans-2.3.0.jar;C:/Users/ARohrs/Andy-Workspace/lightstone_automation_maven/Dependencies/hamcrest-core-1.3.jar;C:/Users/ARohrs/Andy-Workspace/lightstone_automation_maven/Dependencies/junit-4.12.jar:Dependencies\derbyclient.jar:Dependencies/freemarker-2.3.23.jar:Dependencies/sqlite-jdbc-3.8.11.1.jar:Dependencies/winium-elements-desktop-0.1.0-1.jar:Dependencies/jasypt-1.9.2.jar:Dependencies\soapui-5.0.0.jar:Dependencies\opencsv-2.2-sources.jar:Dependencies\opencsv-2.3.jar:Dependencies\poi-3.11-20141221.jar:Dependencies\poi-examples-3.11-20141221.jar:Dependencies\poi-excelant-3.11-20141221.jar:Dependencies\poi-ooxml-3.11-20141221.jar:Dependencies\poi-ooxml-schemas-3.11-20141221.jar:Dependencies\poi-scratchpad-3.11-20141221.jar:Dependencies\wsdl4j-1.6.2-fixed.jar:Dependencies\rsyntaxtextarea-2.5.0.jar:Dependencies\proxy-vole-20131209.jar:Dependencies\commons-beanutils-1.9.2.jar:Dependencies\jaxen-1.1.1.jar:Dependencies/commons-lang3-3.4.jar:Dependencies\jms-1.1.jar:Dependencies\derby.jar:Dependencies/ews-java-api-2.0.jar:Dependencies\derbyclient.jar:Dependencies\sikulixapi.jar:Dependencies/speedtest-1.23.jar:Dependencies/log4j-api-2.7.jar:Dependencies/log4j-core-2.7.jar:Dependencies/http-endec-1.02.jar:Dependencies\serializer.jar:Dependencies\xalan.jar:Dependencies\AutoItX4Java.jar:Dependencies\jacob.jar:Dependencies/imageClient-10.8.jar:Dependencies/ws-commons-util-1.0.2.jar:Dependencies/xmlrpc-client-3.1.2.jar:Dependencies/xmlrpc-common-3.1.2.jar:Dependencies/CucumberJava/cucumber-junit-1.2.5.jar:Dependencies/CucumberJava/cucumber-jvm-deps-1.0.5.jar:Dependencies/CucumberJava/cucumber-reporting-3.8.0.jar:Dependencies/CucumberJava/cucumber-java-1.2.5.jar:Dependencies/CucumberJava/cucumber-core-1.2.5.jar:Dependencies/CucumberJava/gherkin-2.12.2.jar:Dependencies/CucumberJava/gherkin-jvm-deps-1.0.3.jar:Dependencies/CucumberJava/cucumber-html-0.2.6.jar:Dependencies\cucumber-java-1.2.5-javadoc.jar:Dependencies/bsh-2.0b4.jar:Dependencies/bson-3.3.0.jar:Dependencies/commons-codec-1.9.jar:Dependencies\commons-logging-1.2.jar:Dependencies/gson-2.8.0.jar:Dependencies/httpclient-4.5.2.jar:Dependencies/httpcore-4.4.4.jar:Dependencies/httpmime-4.5.2.jar:Dependencies/jcommander-1.48.jar:Dependencies/jsoup-1.9.2.jar:Dependencies/browsermob-dist-2.1.4.jar:Dependencies/jackson-core-2.9.0.jar:Dependencies/json-20140107.jar:Dependencies\Selenium\appium-client.jar:Dependencies/cucumber-extentsreport-3.0.2.jar:Dependencies/mongodb-driver-3.3.0.jar:Dependencies/mongodb-driver-core-3.3.0.jar:Dependencies\zt-zip-1.12.jar:Dependencies\mssql-jdbc-6.2.2.jre8.jar:Dependencies\commons-logging-1.2.jar:Dependencies\fontbox-2.0.13.jar:Dependencies\pdfbox-2.0.13.jar:build/classes" />
    <property name="netbeans.buildnumber" value="201411181905" />
    <property name="libs.JWSAntTasks.javadoc" value="" />
    <property name="build.generated.sources.dir" value="build/generated-sources" />
    <property name="user.variant" value="" />
    <property name="libs.eclipselinkmodelgen.classpath" value="C:\Program Files\NetBeans 8.0.2\java\modules\ext\eclipselink\org.eclipse.persistence.jpa.modelgen_2.5.2.v20140319-9ad6abd.jar" />
    <property name="file.reference.gherkin-2.12.2.jar" value="Dependencies/CucumberJava/gherkin-2.12.2.jar" />
    <property name="sun.java.launcher" value="SUN_STANDARD" />
    <property name="libs.junit.classpath" value="C:/Users/ARohrs/Andy-Workspace/lightstone_automation_maven/Dependencies/junit/junit-3.8.2.jar" />
    <property name="libs.hibernate4-persistencemodelgen.javadoc" value="" />
    <property name="libs.jaxb.javadoc" value="C:\Program Files\NetBeans 8.0.2\ide\docs\jaxb-api-doc.zip" />
    <property name="org.openide.awt.SwingBrowserImpl.do-not-block-awt" value="false" />
    <property name="javac.includes.binary" value="C:\Users\ARohrs\Andy-Workspace\lightstone_automation_maven\build\test\classes\TestSuites\Lightstone_LoginTestSuite.class" />
    <property name="ant.home" value="C:\Program Files\NetBeans 8.0.2\extide\ant" />
    <property name="libs.testng.classpath" value="C:\Program Files\NetBeans 8.0.2\platform\modules\ext\testng-6.8.1-dist.jar" />
    <property name="libs.absolutelayout.maven-pom" value="" />
    <property name="ant.java.version" value="1.8" />
    <property name="java.library.path" value="C:\Program Files\Java\jdk1.8.0_201\jre\bin;C:\WINDOWS\Sun\Java\bin;C:\WINDOWS\system32;C:\WINDOWS;C:\Program Files (x86)\Intel\Intel(R) Management Engine Components\iCLS\;C:\Program Files\Intel\Intel(R) Management Engine Components\iCLS\;C:\Program Files (x86)\Common Files\Oracle\Java\javapath;C:\WINDOWS\system32;C:\WINDOWS;C:\WINDOWS\System32\Wbem;C:\WINDOWS\System32\WindowsPowerShell\v1.0\;C:\WINDOWS\System32\OpenSSH\;C:\Program Files\Intel\WiFi\bin\;C:\Program Files\Common Files\Intel\WirelessCommon\;C:\Program Files (x86)\Intel\Intel(R) Management Engine Components\DAL;C:\Program Files\Intel\Intel(R) Management Engine Components\DAL;C:\Program Files\Git\cmd;C:\Users\ARohrs\AppData\Local\Taurus\bin;C:\Users\ARohrs\AppData\Local\Microsoft\WindowsApps;;." />
    <property name="file.reference.bson-3.3.0.jar" value="Dependencies/bson-3.3.0.jar" />
    <property name="javadoc.author" value="false" />
    <property name="java.util.logging.config.class" value="org.netbeans.core.startup.TopLogging" />
    <property name="libs.spring-framework400.src" value="" />
    <property name="libs.PostgreSQLDriver.src" value="" />
    <property name="file.reference.mongodb-driver-core-3.3.0.jar" value="Dependencies/mongodb-driver-core-3.3.0.jar" />
    <property name="sun.arch.data.model" value="64" />
    <property name="basedir" value="C:\Users\ARohrs\Andy-Workspace\lightstone_automation_maven" />
    <property name="libs.jpa20-persistence.maven-pom" value="" />
    <property name="file.reference.extentreports-3.1.3.jar" value="Dependencies/extentreports-3.1.3.jar" />
    <property name="jar.compress" value="false" />
    <property name="file.reference.poi-excelant-3.11-20141221.jar" value="Dependencies\poi-excelant-3.11-20141221.jar" />
    <property name="test.Unit-Tests.dir" value="Unit-Tests" />
    <property name="path.separator" value=";" />
    <property name="ant.junit.enabletestlistenerevents" value="true" />
    <property name="sun.io.unicode.encoding" value="UnicodeLittle" />
    <property name="libs.jaxws21.classpath" value="C:\Program Files\NetBeans 8.0.2\ide\modules\ext\jaxb\jaxb-impl.jar;C:\Program Files\NetBeans 8.0.2\ide\modules\ext\jaxb\jaxb-xjc.jar;C:\Program Files\NetBeans 8.0.2\java\modules\ext\jaxws22\FastInfoset.jar;C:\Program Files\NetBeans 8.0.2\java\modules\ext\jaxws22\gmbal-api-only.jar;C:\Program Files\NetBeans 8.0.2\java\modules\ext\jaxws22\ha-api.jar;C:\Program Files\NetBeans 8.0.2\java\modules\ext\jaxws22\javax.mail_1.4.jar;C:\Program Files\NetBeans 8.0.2\java\modules\ext\jaxws22\jaxws-rt.jar;C:\Program Files\NetBeans 8.0.2\java\modules\ext\jaxws22\jaxws-tools.jar;C:\Program Files\NetBeans 8.0.2\java\modules\ext\jaxws22\management-api.jar;C:\Program Files\NetBeans 8.0.2\java\modules\ext\jaxws22\mimepull.jar;C:\Program Files\NetBeans 8.0.2\java\modules\ext\jaxws22\policy.jar;C:\Program Files\NetBeans 8.0.2\java\modules\ext\jaxws22\saaj-impl.jar;C:\Program Files\NetBeans 8.0.2\java\modules\ext\jaxws22\stax-ex.jar;C:\Program Files\NetBeans 8.0.2\java\modules\ext\jaxws22\stax2-api.jar;C:\Program Files\NetBeans 8.0.2\java\modules\ext\jaxws22\streambuffer.jar;C:\Program Files\NetBeans 8.0.2\java\modules\ext\jaxws22\woodstox-core-asl.jar;C:\Program Files\NetBeans 8.0.2\java\modules\ext\jaxws22\api\jaxws-api.jar;C:\Program Files\NetBeans 8.0.2\java\modules\ext\jaxws22\api\jsr181-api.jar;C:\Program Files\NetBeans 8.0.2\java\modules\ext\jaxws22\api\javax.annotation.jar;C:\Program Files\NetBeans 8.0.2\java\modules\ext\jaxws22\api\saaj-api.jar;C:\Program Files\NetBeans 8.0.2\ide\modules\ext\jaxb\activation.jar;C:\Program Files\NetBeans 8.0.2\ide\modules\ext\jaxb\api\jaxb-api.jar;C:\Program Files\NetBeans 8.0.2\ide\modules\ext\jaxb\api\jsr173_1.0_api.jar" />
    <property name="libs.Dependencies.displayName" value="Dependencies" />
    <property name="apple.awt.graphics.UseQuartz" value="true" />
    <property name="user.language" value="en" />
    <property name="file.reference.soapui-5.0.0.jar" value="Dependencies\soapui-5.0.0.jar" />
    <property name="testng.mode" value="testng" />
    <property name="file.reference.guava-23.0.jar" value="Dependencies/guava-23.0.jar" />
    <property name="libs.JAXB-ENDORSED.maven-pom" value="" />
    <property name="libs.eclipselink.maven-pom" value="" />
    <property name="application.vendor" value="Ferdi" />
    <property name="test.binaryincludes" value="&lt;nothing&gt;" />
    <property name="libs.spring-framework300.maven-pom" value="" />
    <property name="run.test.classpath" value="Dependencies/extentreports-3.1.3.jar:Dependencies/guava-23.0.jar:Dependencies\Selenium\appium-java-client-5.0.4.jar:Dependencies\Selenium\client-combined-3.7.1.jar:Dependencies\Selenium\selenium-server-standalone-3.7.1.jar:Dependencies/activation.jar:Dependencies\joda-time-2.2.jar:Dependencies/mail.jar:C:/Users/ARohrs/Andy-Workspace/lightstone_automation_maven/Dependencies/../Dependencies/dom4j-1.6.1.jar;C:/Users/ARohrs/Andy-Workspace/lightstone_automation_maven/Dependencies/../Dependencies/log4j-1.2.13.jar;C:/Users/ARohrs/Andy-Workspace/lightstone_automation_maven/Dependencies/../Dependencies/stax-api-1.0.1.jar;C:/Users/ARohrs/Andy-Workspace/lightstone_automation_maven/Dependencies/../Dependencies/xmlbeans-2.3.0.jar;C:/Users/ARohrs/Andy-Workspace/lightstone_automation_maven/Dependencies/hamcrest-core-1.3.jar;C:/Users/ARohrs/Andy-Workspace/lightstone_automation_maven/Dependencies/junit-4.12.jar:Dependencies\derbyclient.jar:Dependencies/freemarker-2.3.23.jar:Dependencies/sqlite-jdbc-3.8.11.1.jar:Dependencies/winium-elements-desktop-0.1.0-1.jar:Dependencies/jasypt-1.9.2.jar:Dependencies\soapui-5.0.0.jar:Dependencies\opencsv-2.2-sources.jar:Dependencies\opencsv-2.3.jar:Dependencies\poi-3.11-20141221.jar:Dependencies\poi-examples-3.11-20141221.jar:Dependencies\poi-excelant-3.11-20141221.jar:Dependencies\poi-ooxml-3.11-20141221.jar:Dependencies\poi-ooxml-schemas-3.11-20141221.jar:Dependencies\poi-scratchpad-3.11-20141221.jar:Dependencies\wsdl4j-1.6.2-fixed.jar:Dependencies\rsyntaxtextarea-2.5.0.jar:Dependencies\proxy-vole-20131209.jar:Dependencies\commons-beanutils-1.9.2.jar:Dependencies\jaxen-1.1.1.jar:Dependencies/commons-lang3-3.4.jar:Dependencies\jms-1.1.jar:Dependencies\derby.jar:Dependencies/ews-java-api-2.0.jar:Dependencies\derbyclient.jar:Dependencies\sikulixapi.jar:Dependencies/speedtest-1.23.jar:Dependencies/log4j-api-2.7.jar:Dependencies/log4j-core-2.7.jar:Dependencies/http-endec-1.02.jar:Dependencies\serializer.jar:Dependencies\xalan.jar:Dependencies\AutoItX4Java.jar:Dependencies\jacob.jar:Dependencies/imageClient-10.8.jar:Dependencies/ws-commons-util-1.0.2.jar:Dependencies/xmlrpc-client-3.1.2.jar:Dependencies/xmlrpc-common-3.1.2.jar:Dependencies/CucumberJava/cucumber-junit-1.2.5.jar:Dependencies/CucumberJava/cucumber-jvm-deps-1.0.5.jar:Dependencies/CucumberJava/cucumber-reporting-3.8.0.jar:Dependencies/CucumberJava/cucumber-java-1.2.5.jar:Dependencies/CucumberJava/cucumber-core-1.2.5.jar:Dependencies/CucumberJava/gherkin-2.12.2.jar:Dependencies/CucumberJava/gherkin-jvm-deps-1.0.3.jar:Dependencies/CucumberJava/cucumber-html-0.2.6.jar:Dependencies\cucumber-java-1.2.5-javadoc.jar:Dependencies/bsh-2.0b4.jar:Dependencies/bson-3.3.0.jar:Dependencies/commons-codec-1.9.jar:Dependencies\commons-logging-1.2.jar:Dependencies/gson-2.8.0.jar:Dependencies/httpclient-4.5.2.jar:Dependencies/httpcore-4.4.4.jar:Dependencies/httpmime-4.5.2.jar:Dependencies/jcommander-1.48.jar:Dependencies/jsoup-1.9.2.jar:Dependencies/browsermob-dist-2.1.4.jar:Dependencies/jackson-core-2.9.0.jar:Dependencies/json-20140107.jar:Dependencies\Selenium\appium-client.jar:Dependencies/cucumber-extentsreport-3.0.2.jar:Dependencies/mongodb-driver-3.3.0.jar:Dependencies/mongodb-driver-core-3.3.0.jar:Dependencies\zt-zip-1.12.jar:Dependencies\mssql-jdbc-6.2.2.jre8.jar:Dependencies\commons-logging-1.2.jar:Dependencies\fontbox-2.0.13.jar:Dependencies\pdfbox-2.0.13.jar:build/classes:build/test/classes" />
    <property name="ant.project.invoked-targets" value="test-single-method" />
    <property name="test.binaryexcludes" value="" />
    <property name="libs.swing-layout.javadoc" value="C:\Program Files\NetBeans 8.0.2\platform\docs\swing-layout-1.0.4-doc.zip" />
    <property name="sun.java2d.dpiaware" value="true" />
    <property name="libs.hibernate4-persistence.maven-pom" value="" />
    <property name="file.reference.sikulixapi.jar" value="Dependencies\sikulixapi.jar" />
    <property name="https.nonProxyHosts" value="localhost|127.0.0.1|DVTL2YM7JR2" />
    <property name="libs.PostgreSQLDriver.maven-pom" value="" />
    <property name="java.class.version" value="52.0" />
    <property name="file.reference.httpmime-4.5.2.jar" value="Dependencies/httpmime-4.5.2.jar" />
    <property name="libs.hibernate4-persistencemodelgen.maven-pom" value="" />
    <property name="libs.eclipselink.javadoc" value="C:\Program Files\NetBeans 8.0.2\java\modules\ext\docs\javax.persistence-2.1.0-doc.zip" />
    <property name="user.properties.file" value="C:\Users\ARohrs\AppData\Roaming\NetBeans\8.0.2\build.properties" />
    <property name="runtime.encoding" value="UTF-8" />
    <property name="libs.javac-api.maven-pom" value="" />
    <property name="file.encoding.pkg" value="sun.io" />
    <property name="sun.cpu.endian" value="little" />
    <property name="libs.JAXB-ENDORSED.javadoc" value="" />
    <property name="file.reference.httpcore-4.4.4.jar" value="Dependencies/httpcore-4.4.4.jar" />
    <property name="libs.JWSAntTasks.classpath" value="C:\Program Files\NetBeans 8.0.2\java\ant\extra\org-netbeans-modules-javawebstart-anttasks.jar" />
    <property name="libs.spring-framework300.src" value="" />
    <property name="file.reference.derbyclient.jar" value="Dependencies\derbyclient.jar" />
    <property name="empty.dir" value="C:\Users\ARohrs\Andy-Workspace\lightstone_automation_maven\build\empty" />
    <property name="file.reference.sqlite-jdbc-3.8.11.1.jar" value="Dependencies/sqlite-jdbc-3.8.11.1.jar" />
    <property name="file.reference.http-endec-1.02.jar" value="Dependencies/http-endec-1.02.jar" />
    <property name="file.reference.xmlrpc-common-3.1.2.jar" value="Dependencies/xmlrpc-common-3.1.2.jar" />
    <property name="version-output" value="java version &quot;1.8" />
    <property name="test.binarytestincludes" value="" />
    <property name="libs.hibernate4-persistencemodelgen.src" value="" />
    <property name="javadoc.preview" value="true" />
    <property name="libs.jpa20-persistence.javadoc" value="C:\Program Files\NetBeans 8.0.2\java\modules\ext\docs\javax.persistence-2.1.0-doc.zip" />
    <property name="file.reference.poi-scratchpad-3.11-20141221.jar" value="Dependencies\poi-scratchpad-3.11-20141221.jar" />
    <property name="file.reference.jms-1.1.jar" value="Dependencies\jms-1.1.jar" />
    <property name="java.home" value="C:\Program Files\Java\jdk1.8.0_201\jre" />
    <property name="file.reference.poi-ooxml-schemas-3.11-20141221.jar" value="Dependencies\poi-ooxml-schemas-3.11-20141221.jar" />
    <property name="debug.test.classpath" value="Dependencies/extentreports-3.1.3.jar:Dependencies/guava-23.0.jar:Dependencies\Selenium\appium-java-client-5.0.4.jar:Dependencies\Selenium\client-combined-3.7.1.jar:Dependencies\Selenium\selenium-server-standalone-3.7.1.jar:Dependencies/activation.jar:Dependencies\joda-time-2.2.jar:Dependencies/mail.jar:C:/Users/ARohrs/Andy-Workspace/lightstone_automation_maven/Dependencies/../Dependencies/dom4j-1.6.1.jar;C:/Users/ARohrs/Andy-Workspace/lightstone_automation_maven/Dependencies/../Dependencies/log4j-1.2.13.jar;C:/Users/ARohrs/Andy-Workspace/lightstone_automation_maven/Dependencies/../Dependencies/stax-api-1.0.1.jar;C:/Users/ARohrs/Andy-Workspace/lightstone_automation_maven/Dependencies/../Dependencies/xmlbeans-2.3.0.jar;C:/Users/ARohrs/Andy-Workspace/lightstone_automation_maven/Dependencies/hamcrest-core-1.3.jar;C:/Users/ARohrs/Andy-Workspace/lightstone_automation_maven/Dependencies/junit-4.12.jar:Dependencies\derbyclient.jar:Dependencies/freemarker-2.3.23.jar:Dependencies/sqlite-jdbc-3.8.11.1.jar:Dependencies/winium-elements-desktop-0.1.0-1.jar:Dependencies/jasypt-1.9.2.jar:Dependencies\soapui-5.0.0.jar:Dependencies\opencsv-2.2-sources.jar:Dependencies\opencsv-2.3.jar:Dependencies\poi-3.11-20141221.jar:Dependencies\poi-examples-3.11-20141221.jar:Dependencies\poi-excelant-3.11-20141221.jar:Dependencies\poi-ooxml-3.11-20141221.jar:Dependencies\poi-ooxml-schemas-3.11-20141221.jar:Dependencies\poi-scratchpad-3.11-20141221.jar:Dependencies\wsdl4j-1.6.2-fixed.jar:Dependencies\rsyntaxtextarea-2.5.0.jar:Dependencies\proxy-vole-20131209.jar:Dependencies\commons-beanutils-1.9.2.jar:Dependencies\jaxen-1.1.1.jar:Dependencies/commons-lang3-3.4.jar:Dependencies\jms-1.1.jar:Dependencies\derby.jar:Dependencies/ews-java-api-2.0.jar:Dependencies\derbyclient.jar:Dependencies\sikulixapi.jar:Dependencies/speedtest-1.23.jar:Dependencies/log4j-api-2.7.jar:Dependencies/log4j-core-2.7.jar:Dependencies/http-endec-1.02.jar:Dependencies\serializer.jar:Dependencies\xalan.jar:Dependencies\AutoItX4Java.jar:Dependencies\jacob.jar:Dependencies/imageClient-10.8.jar:Dependencies/ws-commons-util-1.0.2.jar:Dependencies/xmlrpc-client-3.1.2.jar:Dependencies/xmlrpc-common-3.1.2.jar:Dependencies/CucumberJava/cucumber-junit-1.2.5.jar:Dependencies/CucumberJava/cucumber-jvm-deps-1.0.5.jar:Dependencies/CucumberJava/cucumber-reporting-3.8.0.jar:Dependencies/CucumberJava/cucumber-java-1.2.5.jar:Dependencies/CucumberJava/cucumber-core-1.2.5.jar:Dependencies/CucumberJava/gherkin-2.12.2.jar:Dependencies/CucumberJava/gherkin-jvm-deps-1.0.3.jar:Dependencies/CucumberJava/cucumber-html-0.2.6.jar:Dependencies\cucumber-java-1.2.5-javadoc.jar:Dependencies/bsh-2.0b4.jar:Dependencies/bson-3.3.0.jar:Dependencies/commons-codec-1.9.jar:Dependencies\commons-logging-1.2.jar:Dependencies/gson-2.8.0.jar:Dependencies/httpclient-4.5.2.jar:Dependencies/httpcore-4.4.4.jar:Dependencies/httpmime-4.5.2.jar:Dependencies/jcommander-1.48.jar:Dependencies/jsoup-1.9.2.jar:Dependencies/browsermob-dist-2.1.4.jar:Dependencies/jackson-core-2.9.0.jar:Dependencies/json-20140107.jar:Dependencies\Selenium\appium-client.jar:Dependencies/cucumber-extentsreport-3.0.2.jar:Dependencies/mongodb-driver-3.3.0.jar:Dependencies/mongodb-driver-core-3.3.0.jar:Dependencies\zt-zip-1.12.jar:Dependencies\mssql-jdbc-6.2.2.jre8.jar:Dependencies\commons-logging-1.2.jar:Dependencies\fontbox-2.0.13.jar:Dependencies\pdfbox-2.0.13.jar:build/classes:build/test/classes" />
    <property name="file.reference.speedtest-1.23.jar" value="Dependencies/speedtest-1.23.jar" />
    <property name="netbeans.importclass" value="org.netbeans.upgrade.AutoUpgrade" />
    <property name="file.reference.AutoItX4Java.jar" value="Dependencies\AutoItX4Java.jar" />
    <property name="ant.project.default-target" value="default" />
    <property name="annotation.processing.run.all.processors" value="true" />
    <property name="libs.MyLibrary.classpath" value="" />
    <property name="ant.file.type.lightstone-utahV4-impl" value="file" />
    <property name="jar.archive.disabled" value="false" />
    <property name="jnlp.signing.alias" value="" />
    <property name="libs.PostgreSQLDriver.javadoc" value="" />
    <property name="libs.MySQLDriver.maven-pom" value="" />
    <property name="libraries.dir.nativedirsep" value="C:\Users\ARohrs\Andy-Workspace\lightstone_automation_maven\Dependencies" />
    <property name="libs.hibernate4-persistence.javadoc" value="C:\Program Files\NetBeans 8.0.2\java\modules\ext\docs\javax.persistence-2.1.0-doc.zip" />
    <property name="http.nonProxyHosts" value="localhost|127.0.0.1|DVTL2YM7JR2" />
    <property name="run.classpath" value="Dependencies/extentreports-3.1.3.jar:Dependencies/guava-23.0.jar:Dependencies\Selenium\appium-java-client-5.0.4.jar:Dependencies\Selenium\client-combined-3.7.1.jar:Dependencies\Selenium\selenium-server-standalone-3.7.1.jar:Dependencies/activation.jar:Dependencies\joda-time-2.2.jar:Dependencies/mail.jar:C:/Users/ARohrs/Andy-Workspace/lightstone_automation_maven/Dependencies/../Dependencies/dom4j-1.6.1.jar;C:/Users/ARohrs/Andy-Workspace/lightstone_automation_maven/Dependencies/../Dependencies/log4j-1.2.13.jar;C:/Users/ARohrs/Andy-Workspace/lightstone_automation_maven/Dependencies/../Dependencies/stax-api-1.0.1.jar;C:/Users/ARohrs/Andy-Workspace/lightstone_automation_maven/Dependencies/../Dependencies/xmlbeans-2.3.0.jar;C:/Users/ARohrs/Andy-Workspace/lightstone_automation_maven/Dependencies/hamcrest-core-1.3.jar;C:/Users/ARohrs/Andy-Workspace/lightstone_automation_maven/Dependencies/junit-4.12.jar:Dependencies\derbyclient.jar:Dependencies/freemarker-2.3.23.jar:Dependencies/sqlite-jdbc-3.8.11.1.jar:Dependencies/winium-elements-desktop-0.1.0-1.jar:Dependencies/jasypt-1.9.2.jar:Dependencies\soapui-5.0.0.jar:Dependencies\opencsv-2.2-sources.jar:Dependencies\opencsv-2.3.jar:Dependencies\poi-3.11-20141221.jar:Dependencies\poi-examples-3.11-20141221.jar:Dependencies\poi-excelant-3.11-20141221.jar:Dependencies\poi-ooxml-3.11-20141221.jar:Dependencies\poi-ooxml-schemas-3.11-20141221.jar:Dependencies\poi-scratchpad-3.11-20141221.jar:Dependencies\wsdl4j-1.6.2-fixed.jar:Dependencies\rsyntaxtextarea-2.5.0.jar:Dependencies\proxy-vole-20131209.jar:Dependencies\commons-beanutils-1.9.2.jar:Dependencies\jaxen-1.1.1.jar:Dependencies/commons-lang3-3.4.jar:Dependencies\jms-1.1.jar:Dependencies\derby.jar:Dependencies/ews-java-api-2.0.jar:Dependencies\derbyclient.jar:Dependencies\sikulixapi.jar:Dependencies/speedtest-1.23.jar:Dependencies/log4j-api-2.7.jar:Dependencies/log4j-core-2.7.jar:Dependencies/http-endec-1.02.jar:Dependencies\serializer.jar:Dependencies\xalan.jar:Dependencies\AutoItX4Java.jar:Dependencies\jacob.jar:Dependencies/imageClient-10.8.jar:Dependencies/ws-commons-util-1.0.2.jar:Dependencies/xmlrpc-client-3.1.2.jar:Dependencies/xmlrpc-common-3.1.2.jar:Dependencies/CucumberJava/cucumber-junit-1.2.5.jar:Dependencies/CucumberJava/cucumber-jvm-deps-1.0.5.jar:Dependencies/CucumberJava/cucumber-reporting-3.8.0.jar:Dependencies/CucumberJava/cucumber-java-1.2.5.jar:Dependencies/CucumberJava/cucumber-core-1.2.5.jar:Dependencies/CucumberJava/gherkin-2.12.2.jar:Dependencies/CucumberJava/gherkin-jvm-deps-1.0.3.jar:Dependencies/CucumberJava/cucumber-html-0.2.6.jar:Dependencies\cucumber-java-1.2.5-javadoc.jar:Dependencies/bsh-2.0b4.jar:Dependencies/bson-3.3.0.jar:Dependencies/commons-codec-1.9.jar:Dependencies\commons-logging-1.2.jar:Dependencies/gson-2.8.0.jar:Dependencies/httpclient-4.5.2.jar:Dependencies/httpcore-4.4.4.jar:Dependencies/httpmime-4.5.2.jar:Dependencies/jcommander-1.48.jar:Dependencies/jsoup-1.9.2.jar:Dependencies/browsermob-dist-2.1.4.jar:Dependencies/jackson-core-2.9.0.jar:Dependencies/json-20140107.jar:Dependencies\Selenium\appium-client.jar:Dependencies/cucumber-extentsreport-3.0.2.jar:Dependencies/mongodb-driver-3.3.0.jar:Dependencies/mongodb-driver-core-3.3.0.jar:Dependencies\zt-zip-1.12.jar:Dependencies\mssql-jdbc-6.2.2.jre8.jar:Dependencies\commons-logging-1.2.jar:Dependencies\fontbox-2.0.13.jar:Dependencies\pdfbox-2.0.13.jar:build/classes" />
    <property name="jna.boot.library.name" value="jnidispatch-410" />
    <property name="sun.awt.datatransfer.timeout" value="1000" />
    <property name="libs.jpa2-persistence.maven-pom" value="" />
    <property name="file.reference.jsoup-1.9.2.jar" value="Dependencies/jsoup-1.9.2.jar" />
    <property name="annotation.processing.enabled.in.editor" value="false" />
    <property name="libs.hibernate4-support.classpath" value="C:\Program Files\NetBeans 8.0.2\java\modules\ext\hibernate4\antlr-2.7.7.jar;C:\Program Files\NetBeans 8.0.2\java\modules\ext\hibernate4\c3p0-0.9.2.1.jar;C:\Program Files\NetBeans 8.0.2\java\modules\ext\hibernate4\hibernate-c3p0-4.3.1.Final.jar;C:\Program Files\NetBeans 8.0.2\java\modules\ext\hibernate4\mchange-commons-java-0.2.3.4.jar;C:\Program Files\NetBeans 8.0.2\java\modules\ext\hibernate4\dom4j-1.6.1.jar;C:\Program Files\NetBeans 8.0.2\java\modules\ext\hibernate4\ehcache-core-2.4.3.jar;C:\Program Files\NetBeans 8.0.2\java\modules\ext\hibernate4\hibernate-ehcache-4.3.1.Final.jar;C:\Program Files\NetBeans 8.0.2\java\modules\ext\hibernate4\hibernate-core-4.3.1.Final.jar;C:\Program Files\NetBeans 8.0.2\java\modules\ext\hibernate4\jboss-logging-3.1.3.GA.jar;C:\Program Files\NetBeans 8.0.2\java\modules\ext\hibernate4\hibernate-commons-annotations-4.0.4.Final.jar;C:\Program Files\NetBeans 8.0.2\java\modules\ext\hibernate4\hibernate-entitymanager-4.3.1.Final.jar;C:\Program Files\NetBeans 8.0.2\java\modules\ext\hibernate4\javassist-3.18.1-GA.jar;C:\Program Files\NetBeans 8.0.2\java\modules\ext\hibernate4\jboss-transaction-api_1.2_spec-1.0.0.Final.jar;C:\Program Files\NetBeans 8.0.2\java\modules\ext\hibernate4\slf4j-api-1.6.1.jar;C:\Program Files\NetBeans 8.0.2\java\modules\ext\hibernate4\slf4j-simple-1.6.1.jar" />
    <property name="nb.native.filechooser" value="false" />
    <property name="sun.management.compiler" value="HotSpot 64-Bit Tiered Compilers" />
    <property name="file.reference.mssql-jdbc-6.2.2.jre8.jar" value="Dependencies\mssql-jdbc-6.2.2.jre8.jar" />
    <property name="javac.deprecation" value="false" />
    <property name="javadoc.use" value="true" />
    <property name="sun.java2d.noddraw" value="true" />
    <property name="javac.processorpath" value="Dependencies/extentreports-3.1.3.jar:Dependencies/guava-23.0.jar:Dependencies\Selenium\appium-java-client-5.0.4.jar:Dependencies\Selenium\client-combined-3.7.1.jar:Dependencies\Selenium\selenium-server-standalone-3.7.1.jar:Dependencies/activation.jar:Dependencies\joda-time-2.2.jar:Dependencies/mail.jar:C:/Users/ARohrs/Andy-Workspace/lightstone_automation_maven/Dependencies/../Dependencies/dom4j-1.6.1.jar;C:/Users/ARohrs/Andy-Workspace/lightstone_automation_maven/Dependencies/../Dependencies/log4j-1.2.13.jar;C:/Users/ARohrs/Andy-Workspace/lightstone_automation_maven/Dependencies/../Dependencies/stax-api-1.0.1.jar;C:/Users/ARohrs/Andy-Workspace/lightstone_automation_maven/Dependencies/../Dependencies/xmlbeans-2.3.0.jar;C:/Users/ARohrs/Andy-Workspace/lightstone_automation_maven/Dependencies/hamcrest-core-1.3.jar;C:/Users/ARohrs/Andy-Workspace/lightstone_automation_maven/Dependencies/junit-4.12.jar:Dependencies\derbyclient.jar:Dependencies/freemarker-2.3.23.jar:Dependencies/sqlite-jdbc-3.8.11.1.jar:Dependencies/winium-elements-desktop-0.1.0-1.jar:Dependencies/jasypt-1.9.2.jar:Dependencies\soapui-5.0.0.jar:Dependencies\opencsv-2.2-sources.jar:Dependencies\opencsv-2.3.jar:Dependencies\poi-3.11-20141221.jar:Dependencies\poi-examples-3.11-20141221.jar:Dependencies\poi-excelant-3.11-20141221.jar:Dependencies\poi-ooxml-3.11-20141221.jar:Dependencies\poi-ooxml-schemas-3.11-20141221.jar:Dependencies\poi-scratchpad-3.11-20141221.jar:Dependencies\wsdl4j-1.6.2-fixed.jar:Dependencies\rsyntaxtextarea-2.5.0.jar:Dependencies\proxy-vole-20131209.jar:Dependencies\commons-beanutils-1.9.2.jar:Dependencies\jaxen-1.1.1.jar:Dependencies/commons-lang3-3.4.jar:Dependencies\jms-1.1.jar:Dependencies\derby.jar:Dependencies/ews-java-api-2.0.jar:Dependencies\derbyclient.jar:Dependencies\sikulixapi.jar:Dependencies/speedtest-1.23.jar:Dependencies/log4j-api-2.7.jar:Dependencies/log4j-core-2.7.jar:Dependencies/http-endec-1.02.jar:Dependencies\serializer.jar:Dependencies\xalan.jar:Dependencies\AutoItX4Java.jar:Dependencies\jacob.jar:Dependencies/imageClient-10.8.jar:Dependencies/ws-commons-util-1.0.2.jar:Dependencies/xmlrpc-client-3.1.2.jar:Dependencies/xmlrpc-common-3.1.2.jar:Dependencies/CucumberJava/cucumber-junit-1.2.5.jar:Dependencies/CucumberJava/cucumber-jvm-deps-1.0.5.jar:Dependencies/CucumberJava/cucumber-reporting-3.8.0.jar:Dependencies/CucumberJava/cucumber-java-1.2.5.jar:Dependencies/CucumberJava/cucumber-core-1.2.5.jar:Dependencies/CucumberJava/gherkin-2.12.2.jar:Dependencies/CucumberJava/gherkin-jvm-deps-1.0.3.jar:Dependencies/CucumberJava/cucumber-html-0.2.6.jar:Dependencies\cucumber-java-1.2.5-javadoc.jar:Dependencies/bsh-2.0b4.jar:Dependencies/bson-3.3.0.jar:Dependencies/commons-codec-1.9.jar:Dependencies\commons-logging-1.2.jar:Dependencies/gson-2.8.0.jar:Dependencies/httpclient-4.5.2.jar:Dependencies/httpcore-4.4.4.jar:Dependencies/httpmime-4.5.2.jar:Dependencies/jcommander-1.48.jar:Dependencies/jsoup-1.9.2.jar:Dependencies/browsermob-dist-2.1.4.jar:Dependencies/jackson-core-2.9.0.jar:Dependencies/json-20140107.jar:Dependencies\Selenium\appium-client.jar:Dependencies/cucumber-extentsreport-3.0.2.jar:Dependencies/mongodb-driver-3.3.0.jar:Dependencies/mongodb-driver-core-3.3.0.jar:Dependencies\zt-zip-1.12.jar:Dependencies\mssql-jdbc-6.2.2.jre8.jar:Dependencies\commons-logging-1.2.jar:Dependencies\fontbox-2.0.13.jar:Dependencies\pdfbox-2.0.13.jar" />
    <property name="javac.compilerargs" value="" />
    <property name="ant.file" value="C:\Users\ARohrs\Andy-Workspace\lightstone_automation_maven\build.xml" />
    <property name="libs.beans-binding.maven-pom" value="" />
    <property name="jnlp.codebase.type" value="no.codebase" />
    <property name="file.reference.mongodb-driver-3.3.0.jar" value="Dependencies/mongodb-driver-3.3.0.jar" />
    <property name="libs.hibernate4-support.javadoc" value="C:\Program Files\NetBeans 8.0.2\java\modules\ext\docs\javax.persistence-2.1.0-doc.zip" />
    <property name="libs.beans-binding.src" value="" />
    <property name="java.vm.specification.vendor" value="Oracle Corporation" />
    <property name="libs.swing-layout.src" value="C:\Program Files\NetBeans 8.0.2\platform\docs\swing-layout-1.0.4-src.zip" />
    <property name="file.reference.proxy-vole-20131209.jar" value="Dependencies\proxy-vole-20131209.jar" />
    <property name="file.reference.poi-examples-3.11-20141221.jar" value="Dependencies\poi-examples-3.11-20141221.jar" />
    <property name="org.openide.major.version" value="IDE/1" />
    <property name="java.vm.name" value="Java HotSpot(TM) 64-Bit Server VM" />
    <property name="netbeans.user" value="C:\Users\ARohrs\AppData\Roaming\NetBeans\8.0.2" />
    <property name="javadoc.additionalparam" value="" />
    <property name="jnlp.offline-allowed" value="false" />
    <property name="java.io.tmpdir" value="C:\Users\ARohrs\AppData\Local\Temp\" />
    <property name="java.vendor.url" value="http://java.oracle.com/" />
    <property name="endorsed.classpath.cmd.line.arg" value="" />
    <property name="junit.available" value="true" />
    <property name="libraries.basename" value="nblibraries" />
    <property name="file.reference.commons-logging-1.2.jar" value="Dependencies\commons-logging-1.2.jar" />
    <property name="org.openide.awt.ActionReference.completion" value="org.netbeans.modules.apisupport.project.layers.PathCompletions" />
    <property name="file.reference.zt-zip-1.12.jar" value="Dependencies\zt-zip-1.12.jar" />
    <property name="sun.boot.library.path" value="C:\Program Files\Java\jdk1.8.0_201\jre\bin" />
    <property name="have.sources" value="true" />
    <property name="debug.classpath" value="Dependencies/extentreports-3.1.3.jar:Dependencies/guava-23.0.jar:Dependencies\Selenium\appium-java-client-5.0.4.jar:Dependencies\Selenium\client-combined-3.7.1.jar:Dependencies\Selenium\selenium-server-standalone-3.7.1.jar:Dependencies/activation.jar:Dependencies\joda-time-2.2.jar:Dependencies/mail.jar:C:/Users/ARohrs/Andy-Workspace/lightstone_automation_maven/Dependencies/../Dependencies/dom4j-1.6.1.jar;C:/Users/ARohrs/Andy-Workspace/lightstone_automation_maven/Dependencies/../Dependencies/log4j-1.2.13.jar;C:/Users/ARohrs/Andy-Workspace/lightstone_automation_maven/Dependencies/../Dependencies/stax-api-1.0.1.jar;C:/Users/ARohrs/Andy-Workspace/lightstone_automation_maven/Dependencies/../Dependencies/xmlbeans-2.3.0.jar;C:/Users/ARohrs/Andy-Workspace/lightstone_automation_maven/Dependencies/hamcrest-core-1.3.jar;C:/Users/ARohrs/Andy-Workspace/lightstone_automation_maven/Dependencies/junit-4.12.jar:Dependencies\derbyclient.jar:Dependencies/freemarker-2.3.23.jar:Dependencies/sqlite-jdbc-3.8.11.1.jar:Dependencies/winium-elements-desktop-0.1.0-1.jar:Dependencies/jasypt-1.9.2.jar:Dependencies\soapui-5.0.0.jar:Dependencies\opencsv-2.2-sources.jar:Dependencies\opencsv-2.3.jar:Dependencies\poi-3.11-20141221.jar:Dependencies\poi-examples-3.11-20141221.jar:Dependencies\poi-excelant-3.11-20141221.jar:Dependencies\poi-ooxml-3.11-20141221.jar:Dependencies\poi-ooxml-schemas-3.11-20141221.jar:Dependencies\poi-scratchpad-3.11-20141221.jar:Dependencies\wsdl4j-1.6.2-fixed.jar:Dependencies\rsyntaxtextarea-2.5.0.jar:Dependencies\proxy-vole-20131209.jar:Dependencies\commons-beanutils-1.9.2.jar:Dependencies\jaxen-1.1.1.jar:Dependencies/commons-lang3-3.4.jar:Dependencies\jms-1.1.jar:Dependencies\derby.jar:Dependencies/ews-java-api-2.0.jar:Dependencies\derbyclient.jar:Dependencies\sikulixapi.jar:Dependencies/speedtest-1.23.jar:Dependencies/log4j-api-2.7.jar:Dependencies/log4j-core-2.7.jar:Dependencies/http-endec-1.02.jar:Dependencies\serializer.jar:Dependencies\xalan.jar:Dependencies\AutoItX4Java.jar:Dependencies\jacob.jar:Dependencies/imageClient-10.8.jar:Dependencies/ws-commons-util-1.0.2.jar:Dependencies/xmlrpc-client-3.1.2.jar:Dependencies/xmlrpc-common-3.1.2.jar:Dependencies/CucumberJava/cucumber-junit-1.2.5.jar:Dependencies/CucumberJava/cucumber-jvm-deps-1.0.5.jar:Dependencies/CucumberJava/cucumber-reporting-3.8.0.jar:Dependencies/CucumberJava/cucumber-java-1.2.5.jar:Dependencies/CucumberJava/cucumber-core-1.2.5.jar:Dependencies/CucumberJava/gherkin-2.12.2.jar:Dependencies/CucumberJava/gherkin-jvm-deps-1.0.3.jar:Dependencies/CucumberJava/cucumber-html-0.2.6.jar:Dependencies\cucumber-java-1.2.5-javadoc.jar:Dependencies/bsh-2.0b4.jar:Dependencies/bson-3.3.0.jar:Dependencies/commons-codec-1.9.jar:Dependencies\commons-logging-1.2.jar:Dependencies/gson-2.8.0.jar:Dependencies/httpclient-4.5.2.jar:Dependencies/httpcore-4.4.4.jar:Dependencies/httpmime-4.5.2.jar:Dependencies/jcommander-1.48.jar:Dependencies/jsoup-1.9.2.jar:Dependencies/browsermob-dist-2.1.4.jar:Dependencies/jackson-core-2.9.0.jar:Dependencies/json-20140107.jar:Dependencies\Selenium\appium-client.jar:Dependencies/cucumber-extentsreport-3.0.2.jar:Dependencies/mongodb-driver-3.3.0.jar:Dependencies/mongodb-driver-core-3.3.0.jar:Dependencies\zt-zip-1.12.jar:Dependencies\mssql-jdbc-6.2.2.jre8.jar:Dependencies\commons-logging-1.2.jar:Dependencies\fontbox-2.0.13.jar:Dependencies\pdfbox-2.0.13.jar:build/classes" />
    <property name="file.reference.cucumber-java-1.2.5.jar" value="Dependencies/CucumberJava/cucumber-java-1.2.5.jar" />
    <property name="javac.external.vm" value="false" />
    <property name="javadoc.private" value="false" />
    <property name="libs.MyLibrary.javadoc" value="" />
    <property name="ap.processors.internal" value="" />
    <property name="meta.inf.dir" value="${src.dir}/META-INF" />
    <property name="javadoc.encoding.used" value="UTF-8" />
    <property name="file.reference.gherkin-jvm-deps-1.0.3.jar" value="Dependencies/CucumberJava/gherkin-jvm-deps-1.0.3.jar" />
    <property name="dist.jar" value="dist/lightstone-utahV4.jar" />
    <property name="libs.spring-framework400.maven-pom" value="" />
    <property name="java.runtime.name" value="Java(TM) SE Runtime Environment" />
    <property name="ant.project.name" value="UTAH_Release" />
    <property name="file.reference.poi-3.11-20141221.jar" value="Dependencies\poi-3.11-20141221.jar" />
    <property name="netbeans.hash.code" value="unique=NB_EXTIDE_JAVA0a96d34c2-df73-4053-a616-3c1279d8b4c0_34b92a29-e282-4f18-982e-e75624aaac32" />
    <property name="file.reference.cucumber-junit-1.2.5.jar" value="Dependencies/CucumberJava/cucumber-junit-1.2.5.jar" />
    <property name="netbeans.default_userdir_root" value="C:\Users\ARohrs\AppData\Roaming\NetBeans" />
    <property name="sun.cpu.isalist" value="amd64" />
    <property name="libs.spring-framework400.javadoc" value="" />
    <property name="libs.CopyLibs.javadoc" value="" />
    <property name="file.reference.commons-codec-1.9.jar" value="Dependencies/commons-codec-1.9.jar" />
    <property name="org.openide.specification.version" value="6.2" />
    <property name="user.home" value="C:\Users\ARohrs" />
    <property name="annotation.processing.processors.list" value="" />
    <property name="debug-args-line" value="-Xdebug" />
    <property name="libs.JWSAntTasks.src" value="" />
    <property name="jar.index" value="false" />
    <property name="libs.CopyLibs.maven-pom" value="" />
    <property name="libs.spring-framework300.javadoc" value="" />
    <property name="libs.absolutelayout.javadoc" value="" />
    <property name="guice.disable.misplaced.annotation.check" value="true" />
    <property name="java.specification.name" value="Java Platform API Specification" />
    <property name="libraries.dir" value="C:/Users/ARohrs/Andy-Workspace/lightstone_automation_maven/Dependencies" />
    <property name="file.reference.jacob.jar" value="Dependencies\jacob.jar" />
    <property name="jnlp.mixed.code" value="default" />
    <property name="java.specification.vendor" value="Oracle Corporation" />
    <property name="libs.javac-api.classpath" value="C:\Program Files\NetBeans 8.0.2\java\modules\ext\nb-javac-api.jar" />
    <property name="java.version" value="1.8.0_201" />
    <property name="run.jvmargs.ide" value="" />
    <property name="javadoc.version" value="false" />
    <property name="libs.MySQLDriver.javadoc" value="" />
    <property name="org.openide.version" value="deprecated" />
    <property name="platform.java" value="C:\Program Files\Java\jdk1.8.0_201\jre/bin/java" />
    <property name="file.reference.json-20140107.jar" value="Dependencies/json-20140107.jar" />
    <property name="source.encoding" value="UTF-8" />
    <property name="ap.cmd.line.internal" value="" />
    <property name="libs.eclipselinkmodelgen.maven-pom" value="" />
    <property name="libs.eclipselinkmodelgen.javadoc" value="" />
    <property name="file.reference.ews-java-api-2.0.jar" value="Dependencies/ews-java-api-2.0.jar" />
    <property name="netbeans.home+have.tests" value="true" />
    <property name="annotation.processing.processor.options" value="" />
    <property name="file.reference.gson-2.8.0.jar" value="Dependencies/gson-2.8.0.jar" />
    <property name="libs.testng.maven-pom" value="" />
    <property name="libs.jaxb.src" value="" />
    <property name="file.reference.freemarker-2.3.23.jar" value="Dependencies/freemarker-2.3.23.jar" />
    <property name="work.dir" value="C:\Users\ARohrs\Andy-Workspace\lightstone_automation_maven" />
    <property name="libs.jaxb.classpath" value="C:\Program Files\NetBeans 8.0.2\ide\modules\ext\jaxb\jaxb-impl.jar;C:\Program Files\NetBeans 8.0.2\ide\modules\ext\jaxb\jaxb-xjc.jar;C:\Program Files\NetBeans 8.0.2\ide\modules\ext\jaxb\jaxb1-impl.jar;C:\Program Files\NetBeans 8.0.2\ide\modules\ext\jaxb\activation.jar;C:\Program Files\NetBeans 8.0.2\ide\modules\ext\jaxb\api\jaxb-api.jar;C:\Program Files\NetBeans 8.0.2\ide\modules\ext\jaxb\api\jsr173_1.0_api.jar" />
    <property name="do.depend" value="false" />
    <property name="dist.javadoc.dir" value="dist/javadoc" />
    <property name="libs.swing-layout.classpath" value="C:\Program Files\NetBeans 8.0.2\platform\modules\ext\swing-layout-1.0.4.jar" />
    <property name="build.generated.dir" value="build/generated" />
    <property name="javac.source" value="1.8" />
    <property name="file.reference.serializer.jar" value="Dependencies\serializer.jar" />
    <property name="line.separator" value="&#xd;&#xa;" />
    <property name="file.reference.rsyntaxtextarea-2.5.0.jar" value="Dependencies\rsyntaxtextarea-2.5.0.jar" />
    <property name="java.specification.version" value="1.8" />
    <property name="java.vm.info" value="mixed mode" />
    <property name="libs.jaxws21.maven-pom" value="" />
    <property name="libraries.path" value="C:\Users\ARohrs\Andy-Workspace\lightstone_automation_maven\Dependencies\nblibraries.properties" />
    <property name="file.reference.log4j-api-2.7.jar" value="Dependencies/log4j-api-2.7.jar" />
    <property name="nb.junit.batch" value="false" />
    <property name="junit.forkmode" value="perTest" />
    <property name="file.reference.jcommander-1.48.jar" value="Dependencies/jcommander-1.48.jar" />
    <property name="sun.boot.class.path" value="C:\Program Files\Java\jdk1.8.0_201\jre\lib\resources.jar;C:\Program Files\Java\jdk1.8.0_201\jre\lib\rt.jar;C:\Program Files\Java\jdk1.8.0_201\jre\lib\sunrsasign.jar;C:\Program Files\Java\jdk1.8.0_201\jre\lib\jsse.jar;C:\Program Files\Java\jdk1.8.0_201\jre\lib\jce.jar;C:\Program Files\Java\jdk1.8.0_201\jre\lib\charsets.jar;C:\Program Files\Java\jdk1.8.0_201\jre\lib\jfr.jar;C:\Program Files\Java\jdk1.8.0_201\jre\classes" />
    <property name="javac.target" value="1.8" />
    <property name="file.reference.browsermob-dist-2.1.4.jar" value="Dependencies/browsermob-dist-2.1.4.jar" />
    <property name="built-jar.properties" value="C:\Users\ARohrs\Andy-Workspace\lightstone_automation_maven\build\built-jar.properties" />
    <property name="build.test.classes.dir" value="build/test/classes" />
    <property name="sun.awt.keepWorkingSetOnMinimize" value="true" />
    <property name="libs.jpa2-persistence.src" value="" />
    <property name="file.reference.cucumber-reporting-3.8.0.jar" value="Dependencies/CucumberJava/cucumber-reporting-3.8.0.jar" />
    <property name="annotation.processing.enabled" value="true" />
    <property name="libs.jpa20-persistence.src" value="" />
    <property name="libs.junit.prop-maven-dependencies" value="junit:junit:3.8.2:jar" />
    <property name="dist.dir" value="dist" />
    <property name="testng.debug.mode" value="" />
    <property name="file.reference.jaxen-1.1.1.jar" value="Dependencies\jaxen-1.1.1.jar" />
    <property name="javac.fork" value="false" />
    <property name="java.awt.printerjob" value="sun.awt.windows.WPrinterJob" />
    <property name="default.javac.source" value="1.8" />
    <property name="file.reference.fontbox-2.0.13.jar" value="Dependencies\fontbox-2.0.13.jar" />
    <property name="debug-transport-by-os" value="dt_shmem" />
    <property name="libs.MySQLDriver.src" value="" />
    <property name="sun.jnu.encoding" value="Cp1252" />
    <property name="file.reference.jackson-core-2.9.0.jar" value="Dependencies/jackson-core-2.9.0.jar" />
    <property name="file.reference.activation.jar" value="Dependencies/activation.jar" />
    <property name="build.test.results.dir" value="build/test/results" />
    <property name="java.runtime.version" value="1.8.0_201-b09" />
    <property name="file.reference.bsh-2.0b4.jar" value="Dependencies/bsh-2.0b4.jar" />
    <property name="default.javac.target" value="1.8" />
    <property name="file.reference.imageClient-10.8.jar" value="Dependencies/imageClient-10.8.jar" />
    <property name="user.timezone" value="" />
    <property name="nb.junit.single" value="true" />
    <property name="netbeans.dirs" value="C:\Program Files\NetBeans 8.0.2\nb;C:\Program Files\NetBeans 8.0.2\ergonomics;C:\Program Files\NetBeans 8.0.2\ide;C:\Program Files\NetBeans 8.0.2\extide;C:\Program Files\NetBeans 8.0.2\java;C:\Program Files\NetBeans 8.0.2\apisupport;C:\Program Files\NetBeans 8.0.2\webcommon;C:\Program Files\NetBeans 8.0.2\websvccommon;C:\Program Files\NetBeans 8.0.2\enterprise;C:\Program Files\NetBeans 8.0.2\mobility;C:\Program Files\NetBeans 8.0.2\profiler;C:\Program Files\NetBeans 8.0.2\python;C:\Program Files\NetBeans 8.0.2\php;C:\Program Files\NetBeans 8.0.2\identity;C:\Program Files\NetBeans 8.0.2\harness;C:\Program Files\NetBeans 8.0.2\cnd;C:\Program Files\NetBeans 8.0.2\dlight;C:\Program Files\NetBeans 8.0.2\groovy;C:\Program Files\NetBeans 8.0.2\extra;C:\Program Files\NetBeans 8.0.2\javacard;C:\Program Files\NetBeans 8.0.2\javafx" />
    <property name="java.ext.dirs" value="C:\Program Files\Java\jdk1.8.0_201\jre\lib\ext;C:\WINDOWS\Sun\Java\lib\ext" />
    <property name="libs.MyLibrary.maven-pom" value="" />
    <property name="endorsed.classpath" value="" />
    <property name="libs.absolutelayout.classpath" value="C:\Program Files\NetBeans 8.0.2\java\modules\ext\AbsoluteLayout.jar" />
    <property name="excludes" value="" />
    <property name="libs.jpa2-persistence.javadoc" value="C:\Program Files\NetBeans 8.0.2\java\modules\ext\docs\javax.persistence-2.1.0-doc.zip" />
    <property name="apple.laf.useScreenMenuBar" value="true" />
    <property name="java.class.path" value="C:\Users\ARohrs\Andy-Workspace\lightstone_automation_maven\Dependencies\extentreports-3.1.3.jar;C:\Users\ARohrs\Andy-Workspace\lightstone_automation_maven\Dependencies\guava-23.0.jar;C:\Users\ARohrs\Andy-Workspace\lightstone_automation_maven\Dependencies\Selenium\appium-java-client-5.0.4.jar;C:\Users\ARohrs\Andy-Workspace\lightstone_automation_maven\Dependencies\Selenium\client-combined-3.7.1.jar;C:\Users\ARohrs\Andy-Workspace\lightstone_automation_maven\Dependencies\Selenium\selenium-server-standalone-3.7.1.jar;C:\Users\ARohrs\Andy-Workspace\lightstone_automation_maven\Dependencies\activation.jar;C:\Users\ARohrs\Andy-Workspace\lightstone_automation_maven\Dependencies\joda-time-2.2.jar;C:\Users\ARohrs\Andy-Workspace\lightstone_automation_maven\Dependencies\mail.jar;C:\Users\ARohrs\Andy-Workspace\lightstone_automation_maven\Dependencies\dom4j-1.6.1.jar;C:\Users\ARohrs\Andy-Workspace\lightstone_automation_maven\Dependencies\log4j-1.2.13.jar;C:\Users\ARohrs\Andy-Workspace\lightstone_automation_maven\Dependencies\stax-api-1.0.1.jar;C:\Users\ARohrs\Andy-Workspace\lightstone_automation_maven\Dependencies\xmlbeans-2.3.0.jar;C:\Users\ARohrs\Andy-Workspace\lightstone_automation_maven\Dependencies\hamcrest-core-1.3.jar;C:\Users\ARohrs\Andy-Workspace\lightstone_automation_maven\Dependencies\junit-4.12.jar;C:\Users\ARohrs\Andy-Workspace\lightstone_automation_maven\Dependencies\derbyclient.jar;C:\Users\ARohrs\Andy-Workspace\lightstone_automation_maven\Dependencies\freemarker-2.3.23.jar;C:\Users\ARohrs\Andy-Workspace\lightstone_automation_maven\Dependencies\sqlite-jdbc-3.8.11.1.jar;C:\Users\ARohrs\Andy-Workspace\lightstone_automation_maven\Dependencies\winium-elements-desktop-0.1.0-1.jar;C:\Users\ARohrs\Andy-Workspace\lightstone_automation_maven\Dependencies\jasypt-1.9.2.jar;C:\Users\ARohrs\Andy-Workspace\lightstone_automation_maven\Dependencies\soapui-5.0.0.jar;C:\Users\ARohrs\Andy-Workspace\lightstone_automation_maven\Dependencies\opencsv-2.2-sources.jar;C:\Users\ARohrs\Andy-Workspace\lightstone_automation_maven\Dependencies\opencsv-2.3.jar;C:\Users\ARohrs\Andy-Workspace\lightstone_automation_maven\Dependencies\poi-3.11-20141221.jar;C:\Users\ARohrs\Andy-Workspace\lightstone_automation_maven\Dependencies\poi-examples-3.11-20141221.jar;C:\Users\ARohrs\Andy-Workspace\lightstone_automation_maven\Dependencies\poi-excelant-3.11-20141221.jar;C:\Users\ARohrs\Andy-Workspace\lightstone_automation_maven\Dependencies\poi-ooxml-3.11-20141221.jar;C:\Users\ARohrs\Andy-Workspace\lightstone_automation_maven\Dependencies\poi-ooxml-schemas-3.11-20141221.jar;C:\Users\ARohrs\Andy-Workspace\lightstone_automation_maven\Dependencies\poi-scratchpad-3.11-20141221.jar;C:\Users\ARohrs\Andy-Workspace\lightstone_automation_maven\Dependencies\wsdl4j-1.6.2-fixed.jar;C:\Users\ARohrs\Andy-Workspace\lightstone_automation_maven\Dependencies\rsyntaxtextarea-2.5.0.jar;C:\Users\ARohrs\Andy-Workspace\lightstone_automation_maven\Dependencies\proxy-vole-20131209.jar;C:\Users\ARohrs\Andy-Workspace\lightstone_automation_maven\Dependencies\commons-beanutils-1.9.2.jar;C:\Users\ARohrs\Andy-Workspace\lightstone_automation_maven\Dependencies\jaxen-1.1.1.jar;C:\Users\ARohrs\Andy-Workspace\lightstone_automation_maven\Dependencies\commons-lang3-3.4.jar;C:\Users\ARohrs\Andy-Workspace\lightstone_automation_maven\Dependencies\jms-1.1.jar;C:\Users\ARohrs\Andy-Workspace\lightstone_automation_maven\Dependencies\derby.jar;C:\Users\ARohrs\Andy-Workspace\lightstone_automation_maven\Dependencies\ews-java-api-2.0.jar;C:\Users\ARohrs\Andy-Workspace\lightstone_automation_maven\Dependencies\sikulixapi.jar;C:\Users\ARohrs\Andy-Workspace\lightstone_automation_maven\Dependencies\speedtest-1.23.jar;C:\Users\ARohrs\Andy-Workspace\lightstone_automation_maven\Dependencies\log4j-api-2.7.jar;C:\Users\ARohrs\Andy-Workspace\lightstone_automation_maven\Dependencies\log4j-core-2.7.jar;C:\Users\ARohrs\Andy-Workspace\lightstone_automation_maven\Dependencies\http-endec-1.02.jar;C:\Users\ARohrs\Andy-Workspace\lightstone_automation_maven\Dependencies\serializer.jar;C:\Users\ARohrs\Andy-Workspace\lightstone_automation_maven\Dependencies\xalan.jar;C:\Users\ARohrs\Andy-Workspace\lightstone_automation_maven\Dependencies\AutoItX4Java.jar;C:\Users\ARohrs\Andy-Workspace\lightstone_automation_maven\Dependencies\jacob.jar;C:\Users\ARohrs\Andy-Workspace\lightstone_automation_maven\Dependencies\imageClient-10.8.jar;C:\Users\ARohrs\Andy-Workspace\lightstone_automation_maven\Dependencies\ws-commons-util-1.0.2.jar;C:\Users\ARohrs\Andy-Workspace\lightstone_automation_maven\Dependencies\xmlrpc-client-3.1.2.jar;C:\Users\ARohrs\Andy-Workspace\lightstone_automation_maven\Dependencies\xmlrpc-common-3.1.2.jar;C:\Users\ARohrs\Andy-Workspace\lightstone_automation_maven\Dependencies\CucumberJava\cucumber-junit-1.2.5.jar;C:\Users\ARohrs\Andy-Workspace\lightstone_automation_maven\Dependencies\CucumberJava\cucumber-jvm-deps-1.0.5.jar;C:\Users\ARohrs\Andy-Workspace\lightstone_automation_maven\Dependencies\CucumberJava\cucumber-reporting-3.8.0.jar;C:\Users\ARohrs\Andy-Workspace\lightstone_automation_maven\Dependencies\CucumberJava\cucumber-java-1.2.5.jar;C:\Users\ARohrs\Andy-Workspace\lightstone_automation_maven\Dependencies\CucumberJava\cucumber-core-1.2.5.jar;C:\Users\ARohrs\Andy-Workspace\lightstone_automation_maven\Dependencies\CucumberJava\gherkin-2.12.2.jar;C:\Users\ARohrs\Andy-Workspace\lightstone_automation_maven\Dependencies\CucumberJava\gherkin-jvm-deps-1.0.3.jar;C:\Users\ARohrs\Andy-Workspace\lightstone_automation_maven\Dependencies\CucumberJava\cucumber-html-0.2.6.jar;C:\Users\ARohrs\Andy-Workspace\lightstone_automation_maven\Dependencies\cucumber-java-1.2.5-javadoc.jar;C:\Users\ARohrs\Andy-Workspace\lightstone_automation_maven\Dependencies\bsh-2.0b4.jar;C:\Users\ARohrs\Andy-Workspace\lightstone_automation_maven\Dependencies\bson-3.3.0.jar;C:\Users\ARohrs\Andy-Workspace\lightstone_automation_maven\Dependencies\commons-codec-1.9.jar;C:\Users\ARohrs\Andy-Workspace\lightstone_automation_maven\Dependencies\commons-logging-1.2.jar;C:\Users\ARohrs\Andy-Workspace\lightstone_automation_maven\Dependencies\gson-2.8.0.jar;C:\Users\ARohrs\Andy-Workspace\lightstone_automation_maven\Dependencies\httpclient-4.5.2.jar;C:\Users\ARohrs\Andy-Workspace\lightstone_automation_maven\Dependencies\httpcore-4.4.4.jar;C:\Users\ARohrs\Andy-Workspace\lightstone_automation_maven\Dependencies\httpmime-4.5.2.jar;C:\Users\ARohrs\Andy-Workspace\lightstone_automation_maven\Dependencies\jcommander-1.48.jar;C:\Users\ARohrs\Andy-Workspace\lightstone_automation_maven\Dependencies\jsoup-1.9.2.jar;C:\Users\ARohrs\Andy-Workspace\lightstone_automation_maven\Dependencies\browsermob-dist-2.1.4.jar;C:\Users\ARohrs\Andy-Workspace\lightstone_automation_maven\Dependencies\jackson-core-2.9.0.jar;C:\Users\ARohrs\Andy-Workspace\lightstone_automation_maven\Dependencies\json-20140107.jar;C:\Users\ARohrs\Andy-Workspace\lightstone_automation_maven\Dependencies\Selenium\appium-client.jar;C:\Users\ARohrs\Andy-Workspace\lightstone_automation_maven\Dependencies\cucumber-extentsreport-3.0.2.jar;C:\Users\ARohrs\Andy-Workspace\lightstone_automation_maven\Dependencies\mongodb-driver-3.3.0.jar;C:\Users\ARohrs\Andy-Workspace\lightstone_automation_maven\Dependencies\mongodb-driver-core-3.3.0.jar;C:\Users\ARohrs\Andy-Workspace\lightstone_automation_maven\Dependencies\zt-zip-1.12.jar;C:\Users\ARohrs\Andy-Workspace\lightstone_automation_maven\Dependencies\mssql-jdbc-6.2.2.jre8.jar;C:\Users\ARohrs\Andy-Workspace\lightstone_automation_maven\Dependencies\fontbox-2.0.13.jar;C:\Users\ARohrs\Andy-Workspace\lightstone_automation_maven\Dependencies\pdfbox-2.0.13.jar;C:\Users\ARohrs\Andy-Workspace\lightstone_automation_maven\build\classes;C:\Users\ARohrs\Andy-Workspace\lightstone_automation_maven\build\test\classes;C:\Program Files\NetBeans 8.0.2\extide\ant\lib\ant-launcher.jar;C:\Program Files\NetBeans 8.0.2\extide\ant\lib\ant.jar;C:\Program Files\NetBeans 8.0.2\extide\ant\lib\ant-junit.jar;C:\Program Files\NetBeans 8.0.2\extide\ant\lib\ant-junit4.jar" />
    <property name="file.reference.winium-elements-desktop-0.1.0-1.jar" value="Dependencies/winium-elements-desktop-0.1.0-1.jar" />
    <property name="file.reference.mail.jar" value="Dependencies/mail.jar" />
    <property name="file.reference.xalan.jar" value="Dependencies\xalan.jar" />
    <property name="do.mkdist" value="true" />
    <property name="libs.absolutelayout.src" value="" />
    <property name="libs.jpa20-persistence.classpath" value="C:\Program Files\NetBeans 8.0.2\java\modules\ext\eclipselink\javax.persistence_2.1.0.v201304241213.jar" />
    <property name="file.reference.poi-ooxml-3.11-20141221.jar" value="Dependencies\poi-ooxml-3.11-20141221.jar" />
    <property name="os.version" value="10.0" />
    <property name="application.args" value="" />
    <property name="file.reference.httpclient-4.5.2.jar" value="Dependencies/httpclient-4.5.2.jar" />
    <property name="manifest.custom.permissions" value="" />
    <property name="sun.awt.enableExtraMouseButtons" value="true" />
    <property name="file.reference.cucumber-java-1.2.5-javadoc.jar" value="Dependencies\cucumber-java-1.2.5-javadoc.jar" />
    <property name="sun.desktop" value="windows" />
    <property name="libs.hibernate4-persistence.src" value="" />
    <property name="auxiliary.org-netbeans-spi-editor-hints-projects.perProjectHintSettingsFile" value="nbproject/cfg_hints.xml" />
    <property name="libs.hibernate4-support.maven-pom" value="" />
    <property name="file.reference.cucumber-jvm-deps-1.0.5.jar" value="Dependencies/CucumberJava/cucumber-jvm-deps-1.0.5.jar" />
    <property name="libs.JAXB-ENDORSED.classpath" value="C:\Program Files\NetBeans 8.0.2\ide\modules\ext\jaxb\api\jaxb-api.jar" />
    <property name="nb.internal.action.name" value="run.single.method" />
    <property name="file.reference.wsdl4j-1.6.2-fixed.jar" value="Dependencies\wsdl4j-1.6.2-fixed.jar" />
    <property name="javadoc.reference.cucumber-jvm-deps-1.0.5.jar" value="Dependencies/cucumber-java-1.2.5-javadoc.jar" />
    <property name="libs.eclipselink.classpath" value="C:\Program Files\NetBeans 8.0.2\java\modules\ext\eclipselink\eclipselink.jar;C:\Program Files\NetBeans 8.0.2\java\modules\ext\eclipselink\javax.persistence_2.1.0.v201304241213.jar;C:\Program Files\NetBeans 8.0.2\java\modules\ext\eclipselink\org.eclipse.persistence.jpa.jpql_2.5.2.v20140319-9ad6abd.jar" />
    <property name="libs.beans-binding.javadoc" value="C:\Program Files\NetBeans 8.0.2\java\docs\beansbinding-1.2.1-doc.zip" />
    <property name="java.awt.graphicsenv" value="sun.awt.Win32GraphicsEnvironment" />
    <property name="libs.junit.displayName" value="JUnit 3.8.2" />
    <property name="java.vm.vendor" value="Oracle Corporation" />
    <property name="libs.CopyLibs.classpath" value="C:\Program Files\NetBeans 8.0.2\java\ant\extra\org-netbeans-modules-java-j2seproject-copylibstask.jar" />
    <property name="libs.spring-framework300.classpath" value="C:\Program Files\NetBeans 8.0.2\ide\modules\org-apache-commons-logging.jar;C:\Program Files\NetBeans 8.0.2\java\modules\ext\cglib-2.2.jar;C:\Program Files\NetBeans 8.0.2\java\modules\ext\spring-3.0\spring-aop-3.2.7.RELEASE.jar;C:\Program Files\NetBeans 8.0.2\java\modules\ext\spring-3.0\spring-aspects-3.2.7.RELEASE.jar;C:\Program Files\NetBeans 8.0.2\java\modules\ext\spring-3.0\spring-beans-3.2.7.RELEASE.jar;C:\Program Files\NetBeans 8.0.2\java\modules\ext\spring-3.0\spring-build-src-3.2.7.RELEASE.jar;C:\Program Files\NetBeans 8.0.2\java\modules\ext\spring-3.0\spring-context-3.2.7.RELEASE.jar;C:\Program Files\NetBeans 8.0.2\java\modules\ext\spring-3.0\spring-context-support-3.2.7.RELEASE.jar;C:\Program Files\NetBeans 8.0.2\java\modules\ext\spring-3.0\spring-core-3.2.7.RELEASE.jar;C:\Program Files\NetBeans 8.0.2\java\modules\ext\spring-3.0\spring-expression-3.2.7.RELEASE.jar;C:\Program Files\NetBeans 8.0.2\java\modules\ext\spring-3.0\spring-framework-bom-3.2.7.RELEASE.jar;C:\Program Files\NetBeans 8.0.2\java\modules\ext\spring-3.0\spring-instrument-3.2.7.RELEASE.jar;C:\Program Files\NetBeans 8.0.2\java\modules\ext\spring-3.0\spring-instrument-tomcat-3.2.7.RELEASE.jar;C:\Program Files\NetBeans 8.0.2\java\modules\ext\spring-3.0\spring-jdbc-3.2.7.RELEASE.jar;C:\Program Files\NetBeans 8.0.2\java\modules\ext\spring-3.0\spring-jms-3.2.7.RELEASE.jar;C:\Program Files\NetBeans 8.0.2\java\modules\ext\spring-3.0\spring-orm-3.2.7.RELEASE.jar;C:\Program Files\NetBeans 8.0.2\java\modules\ext\spring-3.0\spring-oxm-3.2.7.RELEASE.jar;C:\Program Files\NetBeans 8.0.2\java\modules\ext\spring-3.0\spring-struts-3.2.7.RELEASE.jar;C:\Program Files\NetBeans 8.0.2\java\modules\ext\spring-3.0\spring-test-3.2.7.RELEASE.jar;C:\Program Files\NetBeans 8.0.2\java\modules\ext\spring-3.0\spring-tx-3.2.7.RELEASE.jar;C:\Program Files\NetBeans 8.0.2\java\modules\ext\spring-3.0\spring-web-3.2.7.RELEASE.jar;C:\Program Files\NetBeans 8.0.2\java\modules\ext\spring-3.0\spring-webmvc-3.2.7.RELEASE.jar;C:\Program Files\NetBeans 8.0.2\java\modules\ext\spring-3.0\spring-webmvc-portlet-3.2.7.RELEASE.jar" />
    <property name="file.reference.appium-java-client-5.0.4.jar" value="Dependencies\Selenium\appium-java-client-5.0.4.jar" />
    <property name="ant.file.lightstone-utahV4-impl" value="C:\Users\ARohrs\Andy-Workspace\lightstone_automation_maven\nbproject\build-impl.xml" />
    <property name="run.jvmargs" value="" />
    <property name="libs.hibernate4-persistence.classpath" value="C:\Program Files\NetBeans 8.0.2\java\modules\ext\hibernate4\antlr-2.7.7.jar;C:\Program Files\NetBeans 8.0.2\java\modules\ext\hibernate4\c3p0-0.9.2.1.jar;C:\Program Files\NetBeans 8.0.2\java\modules\ext\hibernate4\hibernate-c3p0-4.3.1.Final.jar;C:\Program Files\NetBeans 8.0.2\java\modules\ext\hibernate4\mchange-commons-java-0.2.3.4.jar;C:\Program Files\NetBeans 8.0.2\java\modules\ext\hibernate4\dom4j-1.6.1.jar;C:\Program Files\NetBeans 8.0.2\java\modules\ext\hibernate4\ehcache-core-2.4.3.jar;C:\Program Files\NetBeans 8.0.2\java\modules\ext\hibernate4\hibernate-ehcache-4.3.1.Final.jar;C:\Program Files\NetBeans 8.0.2\java\modules\ext\hibernate4\hibernate-core-4.3.1.Final.jar;C:\Program Files\NetBeans 8.0.2\java\modules\ext\hibernate4\jboss-logging-3.1.3.GA.jar;C:\Program Files\NetBeans 8.0.2\java\modules\ext\hibernate4\hibernate-commons-annotations-4.0.4.Final.jar;C:\Program Files\NetBeans 8.0.2\java\modules\ext\hibernate4\hibernate-entitymanager-4.3.1.Final.jar;C:\Program Files\NetBeans 8.0.2\java\modules\ext\hibernate4\javassist-3.18.1-GA.jar;C:\Program Files\NetBeans 8.0.2\java\modules\ext\hibernate4\jboss-transaction-api_1.2_spec-1.0.0.Final.jar;C:\Program Files\NetBeans 8.0.2\java\modules\ext\hibernate4\slf4j-api-1.6.1.jar;C:\Program Files\NetBeans 8.0.2\java\modules\ext\hibernate4\slf4j-simple-1.6.1.jar;C:\Program Files\NetBeans 8.0.2\java\modules\ext\hibernate4\hibernate-jpa-2.1-api-1.0.0.Final.jar" />
    <property name="libs.JAXB-ENDORSED.src" value="" />
    <property name="libs.testng.javadoc" value="C:\Program Files\NetBeans 8.0.2\platform\docs\testng-6.8.1-javadoc.zip" />
    <property name="user.script" value="" />
    <property name="libs.PostgreSQLDriver.classpath" value="C:\Program Files\NetBeans 8.0.2\ide\modules\ext\postgresql-9.2-1002.jdbc4.jar" />
    <property name="jnlp.signing" value="" />
    <property name="libs.hibernate4-persistencemodelgen.classpath" value="C:\Program Files\NetBeans 8.0.2\java\modules\ext\hibernate4\hibernate-jpamodelgen-4.3.1.Final.jar" />
    <property name="annotation.processing.source.output" value="build/generated-sources/ap-source-output" />
    <property name="jnlp.signed" value="false" />
    <property name="libs.CopyLibs.src" value="" />
    <property name="build.dir" value="build" />
    <property name="file.reference.selenium-server-standalone-3.7.1.jar" value="Dependencies\Selenium\selenium-server-standalone-3.7.1.jar" />
    <property name="file.reference.log4j-core-2.7.jar" value="Dependencies/log4j-core-2.7.jar" />
    <property name="file.reference.cucumber-html-0.2.6.jar" value="Dependencies/CucumberJava/cucumber-html-0.2.6.jar" />
    <property name="libs.Dependencies.classpath" value="C:/Users/ARohrs/Andy-Workspace/lightstone_automation_maven/Dependencies/../Dependencies/dom4j-1.6.1.jar;C:/Users/ARohrs/Andy-Workspace/lightstone_automation_maven/Dependencies/../Dependencies/log4j-1.2.13.jar;C:/Users/ARohrs/Andy-Workspace/lightstone_automation_maven/Dependencies/../Dependencies/stax-api-1.0.1.jar;C:/Users/ARohrs/Andy-Workspace/lightstone_automation_maven/Dependencies/../Dependencies/xmlbeans-2.3.0.jar;C:/Users/ARohrs/Andy-Workspace/lightstone_automation_maven/Dependencies/hamcrest-core-1.3.jar;C:/Users/ARohrs/Andy-Workspace/lightstone_automation_maven/Dependencies/junit-4.12.jar" />
    <property name="file.reference.derby.jar" value="Dependencies\derby.jar" />
    <property name="ant.version" value="Apache Ant(TM) version 1.9.4 compiled on April 29 2014" />
    <property name="file.encoding" value="Cp1252" />
    <property name="build.classes.excludes" value="**/*.java,**/*.form" />
    <property name="jdkBug6558476" value="false" />
    <property name="javadoc.nonavbar" value="false" />
    <property name="platform.active" value="default_platform" />
    <property name="awt.toolkit" value="sun.awt.windows.WToolkit" />
    <property name="ant.file.UTAH_Release" value="C:\Users\ARohrs\Andy-Workspace\lightstone_automation_maven\build.xml" />
    <property name="file.reference.commons-lang3-3.4.jar" value="Dependencies/commons-lang3-3.4.jar" />
  </properties>
  <testcase classname="TestSuites.Lightstone_LoginTestSuite" name="loginTestSuite" time="0.159" />
  <system-out><![CDATA[The system cannot find the path specifiednull\Narrator_Log.txt (The system cannot find the path specified)]]></system-out>
  <system-err><![CDATA[]]></system-err>
</testsuite>
